# Blender v2.78 (sub 0) OBJ File: 'keyboard.blend'
# www.blender.org
mtllib keyboard.mtl
o keyboard_mesh
v 7.499325 0.007373 1.998608
v -7.432345 0.010784 -2.121211
v 7.412464 0.007909 -2.190032
v 7.480223 0.007887 -2.121865
v -7.499470 0.010788 -2.052416
v 7.641007 0.107865 -2.188595
v 7.660721 0.107335 2.063871
v -7.660826 0.110829 -2.117652
v -7.641113 0.110298 2.134813
v -7.500435 0.510816 -2.281537
v 7.479258 0.507916 -2.350986
v -7.500515 0.110818 -2.281958
v 7.479178 0.107917 -2.351406
v -7.660747 0.510827 -2.117234
v -7.610432 0.608088 -2.071202
v -7.451155 0.608077 -2.231942
v -7.479284 0.110247 2.297621
v -7.479205 0.510245 2.298040
v -7.641033 0.510296 2.135232
v -7.430387 0.607518 2.248006
v -7.591146 0.607569 2.088751
v 7.641086 0.507864 -2.188176
v 7.430478 0.605195 -2.300935
v 7.591238 0.605144 -2.141679
v 7.660801 0.507332 2.064291
v 7.500487 0.507344 2.228591
v 7.500407 0.107346 2.228172
v 7.610522 0.604626 2.018273
v 7.451246 0.604636 2.179013
v -6.160670 0.407552 0.002072
v -6.263606 0.628565 0.120573
v -6.261599 0.628510 0.553512
v -6.157703 0.407470 0.642064
v -6.474771 0.407452 1.283542
v -6.578703 0.793855 1.180544
v -7.171738 0.793970 1.183293
v -7.274858 0.407607 1.287251
v -6.477738 0.407532 0.643548
v -6.373657 0.793868 0.746642
v -5.940639 0.793785 0.744635
v -5.837668 0.407408 0.640582
v -6.471804 0.407373 1.923534
v -6.368682 0.793737 1.819575
v -6.370689 0.793790 1.386636
v -5.938632 0.793732 1.177576
v -5.834701 0.407328 1.280575
v -7.170778 0.793944 1.390345
v -6.577743 0.793829 1.387596
v -6.371650 0.793815 1.179584
v -7.277826 0.407686 0.647257
v -7.174705 0.794049 0.543300
v 6.640734 0.405071 -0.057276
v 6.536803 0.791474 -0.160275
v 6.103787 0.791558 -0.158268
v 6.000665 0.405195 -0.054309
v 5.897695 0.791572 0.049745
v 5.899702 0.791517 0.482685
v 6.003632 0.405114 0.585685
v 6.107714 0.791451 0.688777
v 6.540730 0.791367 0.686768
v 6.643700 0.404990 0.582715
v 5.360594 0.405319 -0.051341
v 5.363561 0.405238 0.588651
v 5.466683 0.791601 0.484693
v 5.464676 0.791656 0.051753
v 5.256663 0.791722 -0.154340
v 4.823646 0.791806 -0.152333
v 4.720524 0.405444 -0.048375
v 4.723491 0.405362 0.591619
v 4.827573 0.791700 0.694712
v 5.260589 0.791616 0.692704
v -6.054582 0.793832 0.538106
v -6.056589 0.793887 0.105167
v -7.173745 0.794023 0.750352
v -6.580710 0.793908 0.747602
v -6.575736 0.793777 1.820535
v 6.006599 0.405034 1.225676
v 6.109721 0.791399 1.121718
v 5.262596 0.791563 1.125646
v 5.366528 0.405158 1.228643
v 5.997698 0.405276 -0.694302
v 6.101780 0.791612 -0.591207
v 5.357627 0.405400 -0.691334
v 5.254656 0.791776 -0.587280
v 5.469650 0.791523 1.124686
v 5.467642 0.791575 0.691744
v 5.259629 0.791641 0.485653
v 4.826613 0.791725 0.487660
v 5.463716 0.791682 -0.155300
v 5.461709 0.791736 -0.588240
v 4.824606 0.791780 0.054720
v 5.257624 0.791696 0.052713
v 6.106754 0.791477 0.481725
v 6.104747 0.791532 0.048785
v 5.896734 0.791598 -0.157308
v 5.900661 0.791492 0.689737
v -5.731579 0.793692 1.176617
v -5.733586 0.793745 0.743675
v -5.621564 0.793749 0.536098
v -5.517633 0.407346 0.639098
v -5.777655 0.793675 1.383886
v -5.674684 0.407297 1.279833
v 6.539771 0.791393 0.479718
v 5.902668 0.791439 1.122679
v 5.894727 0.791652 -0.590247
v 6.537764 0.791448 0.046778
v 2.580433 0.792320 -0.781940
v 3.013449 0.792236 -0.783948
v 3.011442 0.792289 -1.216887
v 2.578426 0.792373 -1.214878
v -4.089343 0.407388 -1.927550
v -4.192313 0.793765 -1.823496
v -4.191048 0.793731 -1.550555
v -4.087117 0.407327 -1.447556
v -4.726444 0.407431 -1.284590
v -4.829416 0.793807 -1.180535
v -4.827409 0.793754 -0.747595
v -4.723478 0.407352 -0.644599
v -4.624066 0.793814 -1.548548
v -4.727186 0.407451 -1.444588
v -7.271891 0.407528 1.927243
v -7.168770 0.793891 1.823285
v 2.474345 0.406037 -1.317973
v 2.477312 0.405958 -0.677981
v -4.622365 0.793767 -1.181495
v -4.189347 0.793684 -1.183503
v -4.086375 0.407307 -1.287558
v -3.985261 0.793725 -1.824456
v -3.552244 0.793641 -1.826464
v -3.449273 0.407264 -1.930516
v 3.114414 0.405913 -1.320940
v -5.623571 0.793803 0.103159
v -3.983996 0.793691 -1.551513
v -3.550979 0.793607 -1.553521
v -5.298562 0.793608 1.174609
v -5.300569 0.793661 0.741667
v -5.520599 0.407428 -0.000895
v -5.414511 0.793709 0.535138
v -5.416518 0.793764 0.102199
v -4.620358 0.793714 -0.748554
v -4.187340 0.793630 -0.750563
v -3.447048 0.407203 -1.450523
v -4.297356 0.793573 -0.110046
v -3.864338 0.793489 -0.112054
v -3.866345 0.793543 -0.544995
v -4.299363 0.793627 -0.542986
v -4.083409 0.407228 -0.647566
v -3.980287 0.793590 -0.751523
v -3.982294 0.793643 -1.184463
v -3.549277 0.793559 -1.186470
v -3.446306 0.407183 -1.290525
v 3.218495 0.792249 -1.217846
v 3.651512 0.792165 -1.219854
v 3.754484 0.405789 -1.323908
v -4.937425 0.793697 -0.107079
v -5.040546 0.407335 -0.003120
v -4.880529 0.407304 -0.003862
v -4.400477 0.407211 -0.006088
v -4.504408 0.793613 -0.109086
v -3.129238 0.407202 -1.931999
v -3.127012 0.407141 -1.452007
v -3.023890 0.793505 -1.555964
v -3.025156 0.793539 -1.828907
v -4.983501 0.793680 0.100192
v -4.981494 0.793625 0.533131
v -4.877563 0.407222 0.636130
v -2.592139 0.793455 -1.830916
v -2.489167 0.407078 -1.934967
v -3.547270 0.793507 -0.753531
v -3.443339 0.407104 -0.650534
v 3.223469 0.792116 -0.144914
v 3.656487 0.792032 -0.146922
v 3.654480 0.792086 -0.579861
v 3.221462 0.792170 -0.577854
v -5.194631 0.407204 1.277608
v -3.342224 0.793519 -1.187430
v -2.909207 0.793435 -1.189438
v -2.806235 0.407059 -1.293493
v -2.590873 0.793421 -1.557972
v -2.383820 0.793381 -1.558932
v -1.950803 0.793297 -1.560940
v -1.952068 0.793331 -1.833883
v -2.385085 0.793415 -1.831875
v -5.775647 0.793622 1.816826
v -5.671716 0.407218 1.919825
v -5.197598 0.407284 0.637614
v -5.093516 0.793621 0.740707
v -4.660500 0.793537 0.738700
v -4.557528 0.407160 0.634647
v -2.486942 0.407017 -1.454974
v -4.774441 0.793585 0.532171
v -4.341422 0.793501 0.530163
v -4.343429 0.793556 0.097224
v -4.776448 0.793640 0.099232
v -1.849096 0.406954 -1.937934
v -4.451439 0.793444 1.170682
v -4.018422 0.793360 1.168674
v -4.020429 0.793413 0.735733
v -4.453446 0.793497 0.737740
v -4.240459 0.407180 -0.006830
v -4.237493 0.407098 0.633163
v -4.134370 0.793461 0.529203
v -4.136377 0.793516 0.096264
v -3.340217 0.793467 -0.754491
v -2.907200 0.793383 -0.756499
v -4.658493 0.793484 1.171642
v -4.554561 0.407080 1.274640
v -3.017215 0.793324 -0.115981
v -2.584198 0.793241 -0.117989
v -2.586204 0.793295 -0.550930
v -3.019222 0.793378 -0.548922
v -2.803269 0.406980 -0.653501
v -2.700147 0.793343 -0.757459
v -2.702154 0.793395 -1.190397
v -2.269137 0.793311 -1.192405
v -2.166165 0.406935 -1.296459
v -1.846872 0.406893 -1.457942
v -3.657286 0.793449 -0.113014
v -3.760407 0.407086 -0.009055
v -3.600389 0.407055 -0.009797
v -3.120337 0.406962 -0.012023
v -3.224268 0.793365 -0.115021
v -5.568594 0.793581 1.815866
v -4.975560 0.793466 1.813117
v -4.977567 0.793520 1.380177
v -5.570601 0.793635 1.382926
v -3.703360 0.793432 0.094258
v -3.701353 0.793377 0.527196
v -3.597422 0.406974 0.630196
v -1.745016 0.793291 -1.834843
v -1.311998 0.793207 -1.836851
v -1.209026 0.406830 -1.940903
v -4.871628 0.407063 1.916115
v -4.874596 0.407142 1.276124
v -4.768507 0.793426 1.812157
v -4.770514 0.793479 1.379217
v -2.267130 0.793259 -0.759466
v -2.163198 0.406856 -0.656467
v -2.062084 0.793271 -1.193365
v -1.629067 0.793189 -1.195371
v -1.526095 0.406811 -1.299426
v -1.743750 0.793257 -1.561899
v -1.310733 0.793173 -1.563908
v -1.103680 0.793133 -1.564868
v -0.670663 0.793049 -1.566875
v -0.671928 0.793083 -1.839816
v -1.104946 0.793167 -1.837811
v -3.917457 0.407036 0.631679
v -3.914491 0.406956 1.271673
v -3.811369 0.793320 1.167714
v -3.813376 0.793373 0.734773
v -3.380358 0.793289 0.732766
v -3.277387 0.406912 0.628712
v -1.206801 0.406769 -1.460909
v -3.494300 0.793337 0.526236
v -3.061283 0.793253 0.524228
v -3.063290 0.793308 0.091290
v -3.496307 0.793392 0.093298
v -0.568957 0.406706 -1.943870
v -3.171299 0.793196 1.164747
v -2.738281 0.793112 1.162739
v -2.740288 0.793165 0.729798
v -3.173306 0.793249 0.731806
v -2.960318 0.406931 -0.012765
v -2.957351 0.406850 0.627228
v -2.854230 0.793213 0.523268
v -2.856237 0.793268 0.090331
v -2.060077 0.793219 -0.760426
v -1.627059 0.793135 -0.762434
v -3.378351 0.793236 1.165707
v -3.274420 0.406832 1.268705
v -1.737074 0.793076 -0.121916
v -1.304057 0.792992 -0.123924
v -1.306064 0.793047 -0.556865
v -1.739082 0.793131 -0.554857
v -1.523128 0.406732 -0.659434
v -1.420006 0.793095 -0.763394
v -1.422013 0.793148 -1.196331
v -0.988997 0.793064 -1.198339
v -0.886025 0.406687 -1.302394
v -2.377144 0.793200 -0.118949
v -2.480267 0.406838 -0.014990
v -2.320249 0.406807 -0.015732
v -1.840196 0.406714 -0.017958
v -1.944127 0.793117 -0.120956
v -0.566732 0.406645 -1.463877
v -0.303592 0.792978 -1.568577
v 0.129425 0.792894 -1.570585
v 0.128159 0.792928 -1.843526
v -0.304857 0.793012 -1.841518
v -2.423220 0.793184 0.088323
v -2.421213 0.793129 0.521261
v -2.317282 0.406726 0.624261
v -0.408939 0.406675 -1.944612
v -0.406714 0.406614 -1.464619
v -0.986989 0.793011 -0.765401
v -0.883058 0.406608 -0.662401
v 0.231131 0.406551 -1.947580
v -0.781944 0.793024 -1.199299
v -0.348927 0.792940 -1.201306
v -0.245955 0.406563 -1.305361
v -2.637318 0.406788 0.625744
v -2.634351 0.406709 1.265738
v -2.531229 0.793072 1.161779
v -2.533236 0.793125 0.728839
v -2.100218 0.793041 0.726831
v -1.997246 0.406665 0.622777
v -2.214161 0.793089 0.520301
v -1.781143 0.793005 0.518293
v -1.783150 0.793060 0.085356
v -2.216168 0.793144 0.087363
v 0.233356 0.406490 -1.467586
v -1.891158 0.792948 1.158812
v -1.458141 0.792864 1.156804
v -1.460148 0.792917 0.723863
v -1.893165 0.793001 0.725871
v -1.680179 0.406683 -0.018700
v -1.677212 0.406603 0.621293
v -1.574090 0.792965 0.517334
v -1.576097 0.793020 0.084396
v -0.779937 0.792971 -0.766361
v -0.346919 0.792887 -0.768368
v 0.335212 0.792888 -1.844485
v 0.768229 0.792804 -1.846494
v 0.871201 0.406426 -1.950548
v -2.098211 0.792988 1.159772
v -1.994279 0.406585 1.262770
v -0.456934 0.792828 -0.127851
v -0.023916 0.792745 -0.129858
v -0.025923 0.792799 -0.562799
v -0.458941 0.792882 -0.560791
v -0.242988 0.406484 -0.665369
v -0.139866 0.792847 -0.769328
v -0.141873 0.792900 -1.202266
v 0.291145 0.792816 -1.204274
v 0.394115 0.406439 -1.308329
v 0.976548 0.792730 -1.574512
v 1.409565 0.792646 -1.576520
v 1.408300 0.792680 -1.849461
v 0.975283 0.792764 -1.847454
v -1.097004 0.792952 -0.124884
v -1.200125 0.406590 -0.020925
v -1.040108 0.406560 -0.021667
v -0.560056 0.406467 -0.023893
v -0.663987 0.792868 -0.126891
v -1.143080 0.792936 0.082387
v -1.141073 0.792881 0.515326
v -1.037141 0.406479 0.618326
v 0.873426 0.406366 -1.470553
v 0.769495 0.792770 -1.573552
v 0.336477 0.792854 -1.571545
v 0.293152 0.792763 -0.771336
v 0.397083 0.406361 -0.668336
v 1.511271 0.406302 -1.953515
v 0.498197 0.792776 -1.205234
v 0.931215 0.792692 -1.207241
v 1.034186 0.406316 -1.311296
v -1.357176 0.406541 0.619809
v -1.354209 0.406461 1.259802
v -1.251087 0.792824 1.155843
v -1.253094 0.792877 0.722904
v -0.820077 0.792793 0.720896
v -0.717106 0.406417 0.616842
v -0.934020 0.792841 0.514366
v -0.501002 0.792757 0.512359
v -0.503010 0.792812 0.079420
v -0.936027 0.792896 0.081427
v 1.513497 0.406242 -1.473521
v -0.611017 0.792700 1.152876
v -0.178000 0.792616 1.150868
v -0.180007 0.792669 0.717929
v -0.613024 0.792753 0.719936
v -0.400038 0.406436 -0.024635
v -0.397071 0.406355 0.615358
v -0.293950 0.792717 0.511399
v -0.295956 0.792772 0.078460
v 0.500205 0.792723 -0.772296
v 0.933222 0.792639 -0.774303
v 1.615353 0.792640 -1.850421
v 2.048371 0.792556 -1.852429
v 2.151341 0.406179 -1.956483
v -0.818070 0.792740 1.153836
v -0.714139 0.406337 1.256835
v 0.823207 0.792580 -0.133785
v 1.256223 0.792496 -0.135792
v 1.254216 0.792550 -0.568733
v 0.821200 0.792634 -0.566726
v 1.037153 0.406237 -0.671304
v 1.140275 0.792599 -0.775263
v 1.138267 0.792652 -1.208201
v 0.183137 0.792704 -0.130818
v 0.080015 0.406343 -0.026860
v 0.240032 0.406312 -0.027602
v 0.720085 0.406219 -0.029828
v 0.616154 0.792621 -0.132825
v 0.137060 0.792688 0.076452
v 0.139068 0.792633 0.509391
v 0.242999 0.406231 0.612391
v 2.153567 0.406119 -1.476488
v 2.049636 0.792522 -1.579487
v 1.616619 0.792606 -1.577480
v -1.031208 0.406320 1.898312
v -1.135138 0.792722 1.795312
v 2.051337 0.792475 -1.212434
v 2.154308 0.406099 -1.316489
v 2.471378 0.406117 -1.957967
v 2.473603 0.406057 -1.477972
v 2.576724 0.792420 -1.581931
v 2.575459 0.792454 -1.854872
v -0.077036 0.406293 0.613874
v 0.027046 0.792629 0.716969
v 0.460063 0.792545 0.714961
v 0.563035 0.406169 0.610907
v 1.357187 0.406175 -0.672788
v 1.360154 0.406095 -0.032796
v 3.008475 0.792370 -1.856880
v 3.111447 0.405993 -1.960934
v 0.346120 0.792593 0.508432
v 0.779138 0.792509 0.506425
v 0.777131 0.792564 0.073485
v 0.344113 0.792648 0.075492
v 2.157275 0.406020 -0.676497
v 2.053345 0.792422 -0.779496
v 3.216793 0.792295 -1.584898
v 3.649811 0.792212 -1.586906
v 3.648546 0.792246 -1.859847
v 3.215528 0.792330 -1.857840
v -0.234086 0.406244 1.254609
v -0.337058 0.792621 1.358663
v -0.335051 0.792567 1.791603
v -0.231119 0.406165 1.894602
v 0.669123 0.792452 1.146941
v 2.062245 0.792182 1.140483
v 2.060238 0.792235 0.707542
v 0.667116 0.792505 0.714001
v 0.880102 0.406188 -0.030569
v 0.883070 0.406107 0.609423
v 0.986190 0.792469 0.505465
v 0.984183 0.792524 0.072525
v -0.928086 0.792682 1.794352
v 0.566002 0.406089 1.250900
v 0.462070 0.792492 1.147901
v 0.029053 0.792576 1.149908
v -0.074069 0.406213 1.253867
v 3.113672 0.405932 -1.480940
v 3.009740 0.792336 -1.583938
v 3.751517 0.405869 -1.963902
v 1.520172 0.406064 -0.033538
v 1.417201 0.792440 0.070517
v 1.419208 0.792385 0.503457
v 1.523139 0.405982 0.606456
v -0.127998 0.792527 1.790643
v 0.465037 0.792412 1.787894
v 0.463030 0.792466 1.354954
v -0.130005 0.792581 1.357703
v 3.753742 0.405808 -1.483907
v 0.568969 0.406010 1.890893
v 0.672090 0.792372 1.786934
v 0.670083 0.792426 1.353994
v 2.480278 0.405878 -0.037989
v 2.583400 0.792240 -0.141947
v 2.581393 0.792294 -0.574886
v -7.289693 0.408007 -1.912712
v -7.287467 0.407946 -1.432718
v -7.184347 0.794310 -1.536676
v -7.185612 0.794344 -1.809618
v 3.855599 0.792206 -1.860807
v 4.288617 0.792122 -1.862815
v 4.391589 0.405745 -1.966869
v 1.626262 0.792345 0.502497
v 2.059279 0.792262 0.500490
v 2.054305 0.792395 -0.572443
v 1.623295 0.792425 -0.137495
v 1.463276 0.792456 -0.136753
v 1.461269 0.792510 -0.569693
v -6.752594 0.794261 -1.811625
v -6.649624 0.407883 -1.915679
v 2.163210 0.405858 0.603488
v 4.393814 0.405684 -1.486876
v 4.289883 0.792088 -1.589873
v 3.856864 0.792171 -1.587866
v 1.366088 0.405934 1.247190
v 1.263117 0.792311 1.351244
v 1.265125 0.792257 1.784185
v 1.369055 0.405855 1.887184
v 3.120348 0.405754 -0.040956
v 3.016416 0.792156 -0.143954
v 2.166177 0.405779 1.243481
v 3.760418 0.405630 -0.043924
v 1.472178 0.792218 1.783225
v 2.065212 0.792103 1.780476
v 2.063205 0.792156 1.347535
v 1.470170 0.792271 1.350284
v 2.169144 0.405700 1.883474
v 2.592301 0.792001 1.778032
v 3.025317 0.791917 1.776025
v 3.023310 0.791971 1.343084
v 2.590294 0.792055 1.345091
v 3.229403 0.791957 1.135072
v 3.662421 0.791873 1.133065
v 3.660414 0.791926 0.700123
v 3.227396 0.792009 0.702130
v -6.751329 0.794226 -1.538684
v 2.486212 0.405717 1.241997
v 2.489179 0.405638 1.881991
v 3.126281 0.405593 1.239030
v 3.123315 0.405672 0.599037
v 3.763386 0.405548 0.596070
v 4.400489 0.405506 -0.046891
v 4.296557 0.791908 -0.149889
v 3.863540 0.791992 -0.147881
v 4.397522 0.405586 -0.686883
v 4.294550 0.791962 -0.582829
v -6.647398 0.407822 -1.435686
v 4.717557 0.405524 -0.688367
v 4.821639 0.791860 -0.585272
v -7.286726 0.407926 -1.272719
v -7.283760 0.407848 -0.632727
v -7.180639 0.794209 -0.736685
v -7.182646 0.794263 -1.169625
v -6.749627 0.794179 -1.171633
v -6.646657 0.407802 -1.275687
v 3.129248 0.405514 1.879022
v 3.766353 0.405469 1.236062
v 3.872441 0.791753 1.772097
v 4.305459 0.791669 1.770088
v 4.303452 0.791723 1.337148
v 3.870434 0.791807 1.339155
v 3.769320 0.405390 1.876055
v 3.665388 0.791793 1.773057
v 3.232370 0.791877 1.775065
v 4.406422 0.405344 1.233095
v -5.904207 0.794062 -1.542612
v -5.471190 0.793978 -1.544618
v -5.472456 0.794012 -1.817560
v -5.905472 0.794096 -1.815553
v 4.726458 0.405282 1.231611
v 4.829580 0.791647 1.127653
v 6.634799 0.405230 -1.337263
v 6.738881 0.791568 -1.234167
v 7.171899 0.791484 -1.236175
v 7.274870 0.405106 -1.340230
v -6.747621 0.794126 -0.738693
v -6.009553 0.407759 -1.918647
v -6.007328 0.407698 -1.438653
v -5.369483 0.407635 -1.921614
v 4.409389 0.405266 1.873086
v -7.280792 0.407768 0.007265
v -7.177672 0.794130 -0.096692
v -7.179679 0.794184 -0.529632
v 4.729425 0.405204 1.871603
v 4.832548 0.791567 1.767644
v 4.830540 0.791621 1.334704
v 7.173907 0.791430 -0.803235
v 7.277837 0.405028 -0.700236
v -6.643690 0.407723 -0.635694
v -6.540568 0.794086 -0.739652
v -6.542576 0.794139 -1.172593
v -6.109559 0.794055 -1.174600
v -6.006586 0.407678 -1.278654
v 6.112689 0.791319 1.761709
v 6.545705 0.791235 1.759701
v 6.543697 0.791289 1.326762
v 6.110681 0.791373 1.328769
v 6.009566 0.404956 1.865668
v 5.905636 0.791359 1.762669
v 7.174867 0.791404 -0.596182
v 7.179841 0.791269 0.476750
v 7.283771 0.404866 0.579748
v 6.649635 0.404832 1.862701
v 7.289706 0.404708 1.859734
v 7.185775 0.791111 1.756734
v 6.752758 0.791195 1.758742
v 7.180800 0.791243 0.683802
v -7.289654 0.608007 -1.912686
v -7.287429 0.607946 -1.432693
v -6.647360 0.607822 -1.435660
v -6.649585 0.607883 -1.915654
v -7.286686 0.607926 -1.272695
v -5.366515 0.407555 -1.281622
v 2.154347 0.606098 -1.316465
v -6.007289 0.607698 -1.438628
v -5.367257 0.407575 -1.441620
v -3.447009 0.607203 -1.450499
v -3.449234 0.607264 -1.930490
v -7.271852 0.607527 1.927268
v -3.129199 0.607202 -1.931974
v -3.126974 0.607141 -1.451982
v -0.568918 0.606706 -1.943844
v -5.091509 0.793568 1.173649
v 2.169183 0.605700 1.883498
v 5.903628 0.791413 1.329729
v 6.646667 0.404910 1.222709
v 6.542737 0.791315 1.119710
v 0.717118 0.406299 -0.669820
v 0.614147 0.792675 -0.565766
v -1.034174 0.406399 1.258319
v -0.930093 0.792736 1.361412
v 0.077048 0.406423 -0.666853
v 0.181130 0.792758 -0.563758
v -0.563023 0.406546 -0.663885
v -0.665994 0.792923 -0.559832
v -1.203092 0.406670 -0.660918
v -1.099011 0.793007 -0.557824
v -1.843163 0.406794 -0.657950
v -1.946134 0.793171 -0.553897
v -2.483233 0.406918 -0.654983
v -2.379151 0.793254 -0.551890
v -3.123304 0.407042 -0.652017
v -3.226275 0.793419 -0.547962
v -3.763374 0.407166 -0.649050
v -3.659293 0.793503 -0.545955
v -4.403444 0.407290 -0.646082
v -4.506415 0.793667 -0.542026
v 3.860573 0.792072 -0.787875
v 4.293591 0.791989 -0.789883
v 4.291584 0.792041 -1.222821
v 3.858566 0.792125 -1.220814
v -5.043514 0.407414 -0.643115
v -4.939432 0.793751 -0.540019
v -5.260427 0.793838 -0.745587
v -5.262434 0.793890 -1.178528
v -5.683584 0.407538 -0.640146
v -5.786556 0.793914 -0.536091
v -5.784549 0.793860 -0.103151
v -5.680616 0.407459 -0.000153
v 4.394556 0.405665 -1.326876
v 4.818671 0.791939 -1.225265
v 4.820679 0.791887 -0.792326
v 5.253696 0.791803 -0.794334
v 5.251688 0.791855 -1.227273
v -6.323655 0.407661 -0.637178
v -6.320688 0.407583 0.002813
v -6.217566 0.793944 -0.101143
v -6.219573 0.793998 -0.534083
v -6.107551 0.794002 -0.741659
v -7.176712 0.794104 0.110360
v 6.747783 0.791327 0.685808
v 6.740889 0.791514 -0.801227
v 6.637766 0.405152 -0.697269
v 6.534796 0.791528 -0.593215
v 4.714590 0.405603 -1.328359
v 5.354661 0.405478 -1.331328
v 5.458742 0.791815 -1.228233
v 5.891760 0.791731 -1.230240
v 5.994732 0.405354 -1.334295
v 3.766391 0.605469 1.236087
v 3.763424 0.605548 0.596094
v 3.123354 0.605672 0.599062
v 3.126320 0.605593 1.239054
v 3.230363 0.791931 1.342124
v 3.663381 0.791847 1.340116
v 6.100820 0.791638 -0.798260
v 6.533836 0.791554 -0.800268
v 6.531829 0.791608 -1.233207
v 6.098813 0.791691 -1.231200
v 5.893767 0.791677 -0.797300
v 5.460749 0.791763 -0.795294
v 4.714629 0.605603 -1.328335
v 7.274909 0.605106 -1.340205
v 3.757451 0.405710 -0.683915
v 3.861533 0.792046 -0.580821
v 3.653520 0.792112 -0.786915
v 3.220502 0.792196 -0.784908
v 3.117381 0.405834 -0.680948
v 3.014409 0.792210 -0.576894
v -6.424619 0.793984 -0.100183
v -6.003619 0.407600 -0.638662
v -5.900497 0.793962 -0.742619
v -5.902505 0.794014 -1.175560
v -6.426626 0.794038 -0.533123
v -5.469489 0.793931 -1.177568
v -5.467481 0.793878 -0.744627
v -5.363550 0.407476 -0.641630
v -5.579502 0.793874 -0.537051
v -5.146486 0.793790 -0.539059
v -5.577495 0.793820 -0.104111
v -5.144479 0.793737 -0.106119
v -1.137146 0.792776 1.362372
v -6.009514 0.607759 -1.918621
v -4.729412 0.407512 -1.924582
v -5.264135 0.793938 -1.545579
v -5.265401 0.793972 -1.818520
v 4.409428 0.605266 1.873111
v 4.406461 0.605345 1.233119
v 2.489218 0.605638 1.882014
v 4.713887 0.605623 -1.488334
v 7.274167 0.605127 -1.500204
v 7.271942 0.605187 -1.980197
v 2.486251 0.605717 1.242022
v -0.408900 0.606675 -1.944588
v 2.151380 0.606178 -1.956457
v -0.406675 0.606614 -1.464594
v -0.566693 0.606645 -1.463852
v -4.832382 0.793888 -1.820528
v -4.831118 0.793854 -1.547588
v 6.746823 0.791353 0.478758
v 6.741849 0.791488 -0.594175
v 2.474384 0.606036 -1.317948
v 4.394595 0.605664 -1.326852
v 4.729464 0.605204 1.871627
v 7.289745 0.604708 1.859758
v 2.480317 0.605877 -0.037964
v 4.400528 0.605505 -0.046867
v 2.153605 0.606119 -1.476463
v 4.711662 0.605683 -1.968327
v 2.473642 0.606057 -1.477947
v 4.393853 0.605685 -1.486850
v 4.391628 0.605745 -1.966843
v 2.471417 0.606116 -1.957941
v -4.625331 0.793848 -1.821488
v -7.412609 0.010254 2.136226
v 7.432201 0.007379 2.067402
v -7.480368 0.010274 2.068056
v -6.472102 0.793913 0.540042
v -6.474109 0.793968 0.107103
v -6.262603 0.628537 0.337043
v -7.175708 0.794077 0.326830
v -6.473105 0.793940 0.323572
v -6.362824 0.628584 0.121033
v -6.356320 0.628528 0.553952
vt 0.0120 0.5103
vt 0.0121 0.6656
vt 0.0051 0.6685
vt 0.0084 0.4675
vt 0.5742 0.5080
vt 0.5767 0.5105
vt 0.5765 0.6656
vt 0.5741 0.6681
vt 0.5939 0.3061
vt 0.5915 0.4678
vt 0.5800 0.4840
vt 0.0198 0.4852
vt 0.0293 0.4806
vt 0.5705 0.4742
vt 0.0137 0.4791
vt 0.0242 0.4684
vt 0.0304 0.4745
vt 0.0274 0.4653
vt 0.0335 0.4713
vt 0.0101 0.2961
vt 0.0161 0.2899
vt 0.0269 0.3005
vt 0.0208 0.3067
vt 0.0301 0.3037
vt 0.0241 0.3098
vt 0.5761 0.4687
vt 0.5857 0.4785
vt 0.5676 0.4712
vt 0.5732 0.4658
vt 0.5890 0.2945
vt 0.5787 0.3045
vt 0.5729 0.2986
vt 0.5832 0.2886
vt 0.5756 0.3074
vt 0.5699 0.3016
vt 0.0261 0.2795
vt 0.5744 0.2776
vt 0.5742 0.2922
vt 0.0259 0.2941
vt 0.5771 0.4675
vt 0.5795 0.3058
vt 0.5718 0.4806
vt 0.0234 0.4671
vt 0.0200 0.3081
vt 0.0050 0.3085
vt 0.4522 0.6914
vt 0.4592 0.7053
vt 0.4530 0.7107
vt 0.4469 0.7160
vt 0.4341 0.7073
vt 0.0563 0.3446
vt 0.0696 0.3527
vt 0.0631 0.3741
vt 0.0476 0.3734
vt 0.6944 0.7033
vt 0.7080 0.6957
vt 0.7027 0.7120
vt 0.7193 0.7075
vt 0.7110 0.7207
vt 0.2414 0.3971
vt 0.2363 0.3735
vt 0.2519 0.3742
vt 0.2553 0.3901
vt 0.7110 0.6392
vt 0.7193 0.6524
vt 0.7080 0.6642
vt 0.6944 0.6566
vt 0.1085 0.3970
vt 0.1224 0.3900
vt 0.1371 0.4068
vt 0.1284 0.4196
vt 0.6884 0.6799
vt 0.7040 0.6799
vt 0.4198 0.7469
vt 0.4300 0.7186
vt 0.4457 0.7194
vt 0.4411 0.7322
vt 0.4353 0.7484
vt 0.8811 0.6566
vt 0.8947 0.6642
vt 0.8906 0.6799
vt 0.8751 0.6799
vt 0.9868 0.6392
vt 0.9950 0.6524
vt 0.9838 0.6642
vt 0.9702 0.6566
vt 0.7597 0.5239
vt 0.7733 0.5164
vt 0.7845 0.5282
vt 0.7763 0.5414
vt 0.9702 0.7033
vt 0.9641 0.6799
vt 0.9797 0.6799
vt 0.9838 0.6957
vt 0.7913 0.4773
vt 0.8049 0.4848
vt 0.8008 0.5006
vt 0.7852 0.5006
vt 0.6281 0.6136
vt 0.6417 0.6061
vt 0.6529 0.6179
vt 0.6447 0.6311
vt 0.7913 0.3446
vt 0.7852 0.3213
vt 0.8008 0.3213
vt 0.8049 0.3371
vt 0.0527 0.3970
vt 0.0666 0.3900
vt 0.0813 0.4068
vt 0.0725 0.4196
vt 0.0602 0.0562
vt 0.0900 0.0562
vt 0.0900 0.0861
vt 0.0602 0.0861
vt 0.1294 0.3278
vt 0.1371 0.3414
vt 0.1254 0.3527
vt 0.1122 0.3446
vt 0.7537 0.5006
vt 0.7692 0.5006
vt 0.6447 0.5495
vt 0.6529 0.5627
vt 0.6417 0.5745
vt 0.6281 0.5670
vt 0.8811 0.7033
vt 0.8947 0.6957
vt 0.8079 0.4598
vt 0.8161 0.4730
vt 0.9950 0.7075
vt 0.9868 0.7207
vt 0.8768 0.1004
vt 0.9067 0.1004
vt 0.9067 0.1302
vt 0.8768 0.1302
vt 0.9407 0.5239
vt 0.9347 0.5006
vt 0.9502 0.5006
vt 0.9543 0.5164
vt 0.6608 0.5670
vt 0.6743 0.5745
vt 0.6703 0.5903
vt 0.6547 0.5903
vt 0.6944 0.3446
vt 0.6884 0.3213
vt 0.7039 0.3213
vt 0.7080 0.3371
vt 0.6773 0.6311
vt 0.6608 0.6136
vt 0.6743 0.6061
vt 0.6856 0.6179
vt 0.6944 0.7929
vt 0.6884 0.7696
vt 0.7040 0.7696
vt 0.7080 0.7854
vt 0.6944 0.2980
vt 0.7080 0.3055
vt 0.6773 0.5495
vt 0.6856 0.5627
vt 0.9655 0.5282
vt 0.9573 0.5414
vt 0.8207 0.7929
vt 0.8147 0.7696
vt 0.8302 0.7696
vt 0.8343 0.7854
vt 0.7883 0.3096
vt 0.8049 0.3055
vt 0.7913 0.2980
vt 0.0736 0.3278
vt 0.0813 0.3414
vt 0.2700 0.4069
vt 0.2573 0.4152
vt 0.2613 0.4197
vt 0.6944 0.7463
vt 0.7080 0.7538
vt 0.9573 0.4598
vt 0.9655 0.4730
vt 0.9543 0.4848
vt 0.9407 0.4773
vt 0.7110 0.2805
vt 0.7193 0.2937
vt 0.7193 0.7972
vt 0.7110 0.8104
vt 0.6782 0.1887
vt 0.7081 0.1887
vt 0.7081 0.2185
vt 0.6782 0.2185
vt 0.6096 0.8210
vt 0.6171 0.8347
vt 0.6096 0.8417
vt 0.5964 0.8334
vt 0.8079 0.7288
vt 0.8161 0.7420
vt 0.8049 0.7538
vt 0.7913 0.7463
vt 0.6046 0.8572
vt 0.5890 0.8563
vt 0.1035 0.3734
vt 0.1190 0.3741
vt 0.9105 0.7033
vt 0.9045 0.6799
vt 0.9201 0.6799
vt 0.9241 0.6957
vt 0.9105 0.4343
vt 0.9241 0.4267
vt 0.9354 0.4385
vt 0.9271 0.4517
vt 0.3073 0.3882
vt 0.3213 0.3815
vt 0.3318 0.3939
vt 0.3228 0.4066
vt 0.9354 0.7075
vt 0.9271 0.7207
vt 0.0823 0.1004
vt 0.1121 0.1004
vt 0.1121 0.1302
vt 0.0823 0.1302
vt 0.2257 0.2438
vt 0.2556 0.2438
vt 0.2556 0.2627
vt 0.2257 0.2627
vt 0.1043 0.0562
vt 0.1342 0.0562
vt 0.1342 0.0861
vt 0.1043 0.0861
vt 0.8207 0.5239
vt 0.8147 0.5006
vt 0.8302 0.5006
vt 0.8343 0.5164
vt 0.1816 0.1887
vt 0.2114 0.1887
vt 0.2114 0.2185
vt 0.1816 0.2185
vt 0.3112 0.3475
vt 0.3243 0.3559
vt 0.3193 0.3714
vt 0.3038 0.3705
vt 0.3244 0.3352
vt 0.3318 0.3489
vt 0.0050 0.0121
vt 0.0459 0.0121
vt 0.0459 0.0420
vt 0.0050 0.0420
vt 0.2036 0.1445
vt 0.2335 0.1445
vt 0.2335 0.1744
vt 0.2036 0.1744
vt 0.6608 0.7929
vt 0.6547 0.7696
vt 0.6703 0.7696
vt 0.6744 0.7854
vt 0.6856 0.7972
vt 0.6773 0.8104
vt 0.8207 0.4343
vt 0.8343 0.4267
vt 0.8455 0.4385
vt 0.8373 0.4517
vt 0.8302 0.5903
vt 0.8147 0.5903
vt 0.8162 0.5845
vt 0.8207 0.5670
vt 0.8343 0.5745
vt 0.8968 0.8745
vt 0.8933 0.8568
vt 0.9088 0.8577
vt 0.9108 0.8678
vt 0.8373 0.4598
vt 0.8455 0.4730
vt 0.8343 0.4848
vt 0.8207 0.4773
vt 0.9213 0.8803
vt 0.9123 0.8929
vt 0.6773 0.7288
vt 0.6856 0.7420
vt 0.6744 0.7538
vt 0.6608 0.7463
vt 0.7223 0.1445
vt 0.7522 0.1445
vt 0.7522 0.1744
vt 0.7223 0.1744
vt 0.8162 0.7638
vt 0.8207 0.7463
vt 0.8343 0.7538
vt 0.8811 0.4343
vt 0.8947 0.4267
vt 0.9059 0.4385
vt 0.8977 0.4517
vt 0.2919 0.2438
vt 0.3218 0.2438
vt 0.3218 0.2627
vt 0.2919 0.2627
vt 0.3361 0.2438
vt 0.3659 0.2438
vt 0.3659 0.2627
vt 0.3361 0.2627
vt 0.2623 0.3279
vt 0.2700 0.3415
vt 0.2583 0.3528
vt 0.2451 0.3447
vt 0.8509 0.6136
vt 0.8645 0.6061
vt 0.8757 0.6179
vt 0.8592 0.6223
vt 0.8675 0.6311
vt 0.9007 0.8339
vt 0.9138 0.8422
vt 0.6713 0.8740
vt 0.6678 0.8563
vt 0.6833 0.8572
vt 0.6853 0.8673
vt 0.1705 0.1004
vt 0.2004 0.1004
vt 0.2004 0.1302
vt 0.1705 0.1302
vt 0.6958 0.8797
vt 0.6868 0.8924
vt 0.1926 0.0562
vt 0.2225 0.0562
vt 0.2225 0.0861
vt 0.1926 0.0861
vt 0.8811 0.6136
vt 0.8751 0.5903
vt 0.8906 0.5903
vt 0.8947 0.6061
vt 0.2699 0.1887
vt 0.2997 0.1887
vt 0.2997 0.2185
vt 0.2699 0.2185
vt 0.8675 0.5495
vt 0.8757 0.5627
vt 0.8645 0.5745
vt 0.8509 0.5670
vt 0.2919 0.1445
vt 0.3218 0.1445
vt 0.3218 0.1744
vt 0.2919 0.1744
vt 0.6281 0.7929
vt 0.6221 0.7696
vt 0.6376 0.7696
vt 0.6417 0.7854
vt 0.6529 0.7972
vt 0.6447 0.8104
vt 0.6884 0.8210
vt 0.6958 0.8347
vt 0.6883 0.8417
vt 0.6752 0.8334
vt 0.7692 0.7696
vt 0.7537 0.7696
vt 0.7552 0.7638
vt 0.7597 0.7463
vt 0.7733 0.7538
vt 0.1154 0.0121
vt 0.1563 0.0121
vt 0.1563 0.0420
vt 0.1154 0.0420
vt 0.8977 0.5495
vt 0.9059 0.5627
vt 0.8947 0.5745
vt 0.8811 0.5670
vt 0.8246 0.8745
vt 0.8386 0.8678
vt 0.8491 0.8803
vt 0.8401 0.8929
vt 0.1918 0.3447
vt 0.2050 0.3528
vt 0.1986 0.3742
vt 0.1830 0.3735
vt 0.0123 0.9136
vt 0.0334 0.9019
vt 0.0373 0.9170
vt 0.0230 0.9249
vt 0.6447 0.7288
vt 0.6529 0.7420
vt 0.6417 0.7538
vt 0.6281 0.7463
vt 0.9105 0.6136
vt 0.9241 0.6061
vt 0.9354 0.6179
vt 0.9271 0.6311
vt 0.3802 0.2438
vt 0.4101 0.2438
vt 0.4101 0.2627
vt 0.3802 0.2627
vt 0.4244 0.2438
vt 0.4542 0.2438
vt 0.4542 0.2627
vt 0.4244 0.2627
vt 0.7597 0.3446
vt 0.7537 0.3213
vt 0.7692 0.3213
vt 0.7733 0.3371
vt 0.7845 0.3489
vt 0.7680 0.3533
vt 0.7763 0.3621
vt 0.8285 0.8339
vt 0.8416 0.8422
vt 0.8366 0.8577
vt 0.8211 0.8568
vt 0.7884 0.8745
vt 0.7849 0.8568
vt 0.8005 0.8577
vt 0.8024 0.8678
vt 0.2588 0.1004
vt 0.2887 0.1004
vt 0.2887 0.1302
vt 0.2588 0.1302
vt 0.8130 0.8803
vt 0.8040 0.8929
vt 0.2809 0.0562
vt 0.3108 0.0562
vt 0.3108 0.0861
vt 0.2809 0.0861
vt 0.9105 0.5239
vt 0.9045 0.5006
vt 0.9201 0.5006
vt 0.9241 0.5164
vt 0.3582 0.1887
vt 0.3880 0.1887
vt 0.3880 0.2185
vt 0.3582 0.2185
vt 0.7763 0.2805
vt 0.7845 0.2937
vt 0.7733 0.3055
vt 0.7597 0.2980
vt 0.3802 0.1445
vt 0.4101 0.1445
vt 0.4101 0.1744
vt 0.3802 0.1744
vt 0.9702 0.7929
vt 0.9641 0.7696
vt 0.9797 0.7696
vt 0.9838 0.7854
vt 0.9950 0.7972
vt 0.9868 0.8104
vt 0.8906 0.7696
vt 0.8751 0.7696
vt 0.8766 0.7638
vt 0.8811 0.7463
vt 0.8947 0.7538
vt 0.7923 0.8339
vt 0.8055 0.8422
vt 0.8055 0.8215
vt 0.8130 0.8352
vt 0.4796 0.2438
vt 0.5094 0.2438
vt 0.5094 0.2627
vt 0.4796 0.2627
vt 0.9271 0.4598
vt 0.9354 0.4730
vt 0.9241 0.4848
vt 0.9105 0.4773
vt 0.5663 0.8740
vt 0.5628 0.8563
vt 0.5783 0.8572
vt 0.5803 0.8673
vt 0.9868 0.7288
vt 0.9950 0.7420
vt 0.9838 0.7538
vt 0.9702 0.7463
vt 0.5908 0.8797
vt 0.5818 0.8924
vt 0.8207 0.3446
vt 0.8343 0.3371
vt 0.8455 0.3489
vt 0.8373 0.3621
vt 0.8509 0.3446
vt 0.8449 0.3213
vt 0.8604 0.3213
vt 0.8645 0.3371
vt 0.8757 0.3489
vt 0.8592 0.3533
vt 0.8675 0.3621
vt 0.3471 0.1004
vt 0.3770 0.1004
vt 0.3770 0.1302
vt 0.3471 0.1302
vt 0.5702 0.8334
vt 0.5833 0.8417
vt 0.3692 0.0562
vt 0.3991 0.0562
vt 0.3991 0.0861
vt 0.3692 0.0861
vt 0.8811 0.3446
vt 0.8751 0.3213
vt 0.8906 0.3213
vt 0.8947 0.3371
vt 0.4464 0.1887
vt 0.4763 0.1887
vt 0.4763 0.2185
vt 0.4464 0.2185
vt 0.7162 0.8745
vt 0.7302 0.8678
vt 0.7407 0.8803
vt 0.7317 0.8929
vt 0.8675 0.2805
vt 0.8757 0.2937
vt 0.8645 0.3055
vt 0.8509 0.2980
vt 0.4685 0.1445
vt 0.4984 0.1445
vt 0.4984 0.1744
vt 0.4685 0.1744
vt 0.7271 0.7033
vt 0.7210 0.6799
vt 0.7366 0.6799
vt 0.7407 0.6957
vt 0.7519 0.7075
vt 0.7437 0.7207
vt 0.5678 0.2438
vt 0.5977 0.2438
vt 0.5977 0.2627
vt 0.5678 0.2627
vt 0.6376 0.6799
vt 0.6221 0.6799
vt 0.6236 0.6741
vt 0.6281 0.6566
vt 0.6417 0.6642
vt 0.8977 0.2805
vt 0.9059 0.2937
vt 0.8947 0.3055
vt 0.8811 0.2980
vt 0.7201 0.8339
vt 0.7332 0.8422
vt 0.7282 0.8577
vt 0.7127 0.8568
vt 0.7437 0.6392
vt 0.7519 0.6524
vt 0.7407 0.6642
vt 0.7271 0.6566
vt 0.8968 0.9540
vt 0.9108 0.9473
vt 0.9213 0.9598
vt 0.9123 0.9724
vt 0.9407 0.7929
vt 0.9543 0.7854
vt 0.9655 0.7972
vt 0.9573 0.8104
vt 0.7271 0.6136
vt 0.7210 0.5903
vt 0.7366 0.5903
vt 0.7407 0.6061
vt 0.7519 0.6179
vt 0.7354 0.6223
vt 0.7437 0.6311
vt 0.4354 0.1004
vt 0.4653 0.1004
vt 0.4653 0.1302
vt 0.4354 0.1302
vt 0.9007 0.9134
vt 0.9138 0.9217
vt 0.9088 0.9372
vt 0.8933 0.9363
vt 0.4575 0.0562
vt 0.4873 0.0562
vt 0.4873 0.0861
vt 0.4575 0.0861
vt 0.7597 0.6136
vt 0.7537 0.5903
vt 0.7692 0.5903
vt 0.7733 0.6061
vt 0.5347 0.1887
vt 0.5646 0.1887
vt 0.5646 0.2185
vt 0.5347 0.2185
vt 0.8607 0.9540
vt 0.8747 0.9473
vt 0.8852 0.9598
vt 0.8762 0.9724
vt 0.7437 0.5495
vt 0.7519 0.5627
vt 0.7407 0.5745
vt 0.7271 0.5670
vt 0.5568 0.1445
vt 0.5867 0.1445
vt 0.5867 0.1744
vt 0.5568 0.1744
vt 0.4561 0.7683
vt 0.4523 0.7445
vt 0.4678 0.7459
vt 0.4704 0.7620
vt 0.8008 0.5903
vt 0.7852 0.5903
vt 0.7867 0.5845
vt 0.7913 0.5670
vt 0.8049 0.5745
vt 0.7763 0.5495
vt 0.7845 0.5627
vt 0.7733 0.5745
vt 0.7597 0.5670
vt 0.8646 0.9134
vt 0.8777 0.9217
vt 0.8727 0.9372
vt 0.8572 0.9363
vt 0.8778 0.9010
vt 0.8852 0.9147
vt 0.1779 0.9019
vt 0.1740 0.9170
vt 0.4916 0.7890
vt 0.4822 0.8013
vt 0.3434 0.3882
vt 0.3399 0.3705
vt 0.3554 0.3714
vt 0.3574 0.3815
vt 0.7271 0.3446
vt 0.7407 0.3371
vt 0.7354 0.3533
vt 0.7519 0.3489
vt 0.7437 0.3621
vt 0.9573 0.3702
vt 0.9655 0.3834
vt 0.9543 0.3952
vt 0.9407 0.3876
vt 0.3679 0.3939
vt 0.3589 0.4066
vt 0.5237 0.1004
vt 0.5536 0.1004
vt 0.5536 0.1302
vt 0.5237 0.1302
vt 0.4563 0.7332
vt 0.4665 0.7048
vt 0.4794 0.7136
vt 0.7223 0.2438
vt 0.7522 0.2438
vt 0.7522 0.2627
vt 0.7223 0.2627
vt 0.1817 0.3279
vt 0.1894 0.3415
vt 0.1777 0.3528
vt 0.1644 0.3447
vt 0.5458 0.0562
vt 0.6418 0.0562
vt 0.6418 0.0861
vt 0.5458 0.0861
vt 0.7271 0.4343
vt 0.7210 0.4110
vt 0.7366 0.4110
vt 0.7407 0.4267
vt 0.4847 0.6890
vt 0.4916 0.7029
vt 0.1713 0.3742
vt 0.1557 0.3735
vt 0.7271 0.2980
vt 0.7407 0.3055
vt 0.7366 0.3213
vt 0.7210 0.3213
vt 0.3473 0.3475
vt 0.3604 0.3559
vt 0.7523 0.8745
vt 0.7663 0.8678
vt 0.7768 0.8803
vt 0.7678 0.8929
vt 0.7437 0.3702
vt 0.7519 0.3834
vt 0.7407 0.3952
vt 0.7271 0.3876
vt 0.4906 0.0121
vt 0.5315 0.0121
vt 0.5315 0.0420
vt 0.4906 0.0420
vt 0.7562 0.8339
vt 0.7693 0.8422
vt 0.7643 0.8577
vt 0.7488 0.8568
vt 0.0848 0.3446
vt 0.0981 0.3527
vt 0.0916 0.3741
vt 0.0761 0.3734
vt 0.2144 0.3971
vt 0.2093 0.3735
vt 0.2248 0.3742
vt 0.2283 0.3901
vt 0.7913 0.4343
vt 0.7852 0.4110
vt 0.8008 0.4110
vt 0.8049 0.4267
vt 0.8607 0.8745
vt 0.8572 0.8568
vt 0.8727 0.8577
vt 0.8747 0.8678
vt 0.8246 0.9540
vt 0.8386 0.9473
vt 0.8491 0.9598
vt 0.8401 0.9724
vt 0.6120 0.1004
vt 0.6418 0.1004
vt 0.6418 0.1744
vt 0.6120 0.1445
vt 0.6009 0.1445
vt 0.6009 0.1744
vt 0.8852 0.8803
vt 0.8762 0.8929
vt 0.4356 0.9023
vt 0.4501 0.8967
vt 0.4426 0.9121
vt 0.4807 0.9392
vt 0.4567 0.9317
vt 0.4708 0.9512
vt 0.5170 0.8076
vt 0.5261 0.8202
vt 0.5006 0.8514
vt 0.4865 0.8449
vt 0.8284 0.9134
vt 0.8416 0.9217
vt 0.8366 0.9372
vt 0.8211 0.9363
vt 0.8416 0.9010
vt 0.8491 0.9147
vt 0.2353 0.3279
vt 0.2430 0.3415
vt 0.2313 0.3528
vt 0.2180 0.3447
vt 0.7913 0.3876
vt 0.8049 0.3952
vt 0.4744 0.8076
vt 0.4807 0.8218
vt 0.4680 0.8320
vt 0.4556 0.8227
vt 0.9106 0.7463
vt 0.9241 0.7538
vt 0.9201 0.7696
vt 0.9045 0.7696
vt 0.6009 0.0121
vt 0.6418 0.0121
vt 0.6418 0.0420
vt 0.6009 0.0420
vt 0.1384 0.3446
vt 0.1517 0.3527
vt 0.1452 0.3741
vt 0.1297 0.3734
vt 0.1557 0.3278
vt 0.1634 0.3414
vt 0.6782 0.0121
vt 0.7081 0.0121
vt 0.7081 0.0420
vt 0.6782 0.0420
vt 0.7223 0.0562
vt 0.7522 0.0562
vt 0.7522 0.0861
vt 0.7223 0.0861
vt 0.0050 0.2438
vt 0.0349 0.2438
vt 0.0349 0.2627
vt 0.0050 0.2627
vt 0.9702 0.6136
vt 0.9641 0.5903
vt 0.9797 0.5903
vt 0.9838 0.6061
vt 0.9950 0.6179
vt 0.9868 0.6311
vt 0.6281 0.3446
vt 0.6221 0.3213
vt 0.6376 0.3213
vt 0.6417 0.3371
vt 0.6529 0.3489
vt 0.6447 0.3621
vt 0.6944 0.5670
vt 0.7080 0.5745
vt 0.7040 0.5903
vt 0.6884 0.5903
vt 0.7110 0.5495
vt 0.7193 0.5627
vt 0.8646 0.8339
vt 0.8777 0.8422
vt 0.8778 0.8215
vt 0.8852 0.8352
vt 0.7913 0.5239
vt 0.8049 0.5164
vt 0.9702 0.5239
vt 0.9641 0.5006
vt 0.9797 0.5006
vt 0.9838 0.5164
vt 0.9950 0.5282
vt 0.9868 0.5414
vt 0.9702 0.5670
vt 0.9838 0.5745
vt 0.6447 0.2805
vt 0.6529 0.2937
vt 0.6417 0.3055
vt 0.6281 0.2980
vt 0.7665 0.0121
vt 0.7964 0.0121
vt 0.7964 0.0420
vt 0.7665 0.0420
vt 0.7597 0.3876
vt 0.7733 0.3952
vt 0.7692 0.4110
vt 0.7537 0.4110
vt 0.9105 0.3446
vt 0.9241 0.3371
vt 0.9354 0.3489
vt 0.9271 0.3621
vt 0.0933 0.2438
vt 0.1232 0.2438
vt 0.1232 0.2627
vt 0.0933 0.2627
vt 0.6221 0.5903
vt 0.6376 0.5903
vt 0.9407 0.7033
vt 0.9543 0.6957
vt 0.9655 0.7075
vt 0.9573 0.7207
vt 0.0050 0.1887
vt 0.0349 0.1887
vt 0.0349 0.2185
vt 0.0050 0.2185
vt 0.7884 0.9540
vt 0.7849 0.9363
vt 0.8005 0.9372
vt 0.8024 0.9473
vt 0.8129 0.9598
vt 0.8040 0.9724
vt 0.9105 0.2980
vt 0.9241 0.3055
vt 0.9201 0.3213
vt 0.9045 0.3213
vt 0.9271 0.2805
vt 0.9354 0.2937
vt 0.2738 0.3957
vt 0.2694 0.3721
vt 0.2849 0.3731
vt 0.2878 0.3892
vt 0.4911 0.7644
vt 0.4876 0.7406
vt 0.5031 0.7423
vt 0.5054 0.7584
vt 0.9573 0.6392
vt 0.9655 0.6524
vt 0.9543 0.6642
vt 0.9407 0.6566
vt 0.9407 0.6136
vt 0.9347 0.5903
vt 0.9502 0.5903
vt 0.9543 0.6061
vt 0.9655 0.6179
vt 0.9573 0.6311
vt 0.9210 0.0121
vt 0.9509 0.0121
vt 0.9509 0.0420
vt 0.9210 0.0420
vt 0.5047 0.6955
vt 0.5174 0.7045
vt 0.5625 0.6851
vt 0.5722 0.6973
vt 0.5477 0.7295
vt 0.5334 0.7235
vt 0.9407 0.2980
vt 0.9543 0.3055
vt 0.9502 0.3213
vt 0.9347 0.3213
vt 0.5657 0.7235
vt 0.5800 0.7295
vt 0.5777 0.7456
vt 0.5622 0.7473
vt 0.5948 0.6851
vt 0.6045 0.6973
vt 0.1589 0.6898
vt 0.1589 0.6823
vt 0.1770 0.6823
vt 0.1770 0.6898
vt 0.2011 0.6823
vt 0.2011 0.6898
vt 0.1348 0.6898
vt 0.1168 0.6898
vt 0.1168 0.6823
vt 0.1348 0.6823
vt 0.0123 0.8176
vt 0.0123 0.8105
vt 0.0352 0.8104
vt 0.0811 0.8096
vt 0.0811 0.8104
vt 0.1270 0.8104
vt 0.1270 0.8096
vt 0.1728 0.8104
vt 0.1728 0.8096
vt 0.1959 0.8087
vt 0.3506 0.8176
vt 0.2417 0.8092
vt 0.2417 0.8084
vt 0.2876 0.8097
vt 0.2876 0.8089
vt 0.3506 0.8104
vt 0.3105 0.8100
vt 0.1086 0.7136
vt 0.1086 0.7211
vt 0.0845 0.7136
vt 0.0123 0.7211
vt 0.0605 0.7136
vt 0.0123 0.7136
vt 0.0364 0.7136
vt 0.2230 0.7136
vt 0.2411 0.7136
vt 0.2411 0.7211
vt 0.2230 0.7211
vt 0.2613 0.7762
vt 0.3817 0.7762
vt 0.3335 0.7837
vt 0.3094 0.7837
vt 0.3817 0.7837
vt 0.3576 0.7837
vt 0.2613 0.7837
vt 0.2853 0.7837
vt 0.1267 0.7367
vt 0.1267 0.7292
vt 0.1448 0.7292
vt 0.1448 0.7367
vt 0.1026 0.7367
vt 0.0785 0.7367
vt 0.0304 0.7292
vt 0.0304 0.7367
vt 0.0545 0.7367
vt 0.8449 0.5903
vt 0.8604 0.5903
vt 0.7437 0.2805
vt 0.7519 0.2937
vt 0.0123 0.7992
vt 0.0123 0.7918
vt 0.0421 0.7992
vt 0.1016 0.7992
vt 0.0421 0.8003
vt 0.3634 0.7918
vt 0.2444 0.7992
vt 0.3039 0.7992
vt 0.2444 0.8003
vt 0.3634 0.7992
vt 0.3337 0.7992
vt 0.2430 0.4069
vt 0.2342 0.4197
vt 0.5458 0.0121
vt 0.5867 0.0121
vt 0.5867 0.0420
vt 0.5458 0.0420
vt 0.1348 0.3970
vt 0.1486 0.3900
vt 0.1634 0.4068
vt 0.1546 0.4196
vt 0.4977 0.8675
vt 0.4822 0.8686
vt 0.5231 0.6800
vt 0.5298 0.6940
vt 0.7597 0.4773
vt 0.7733 0.4848
vt 0.7519 0.4385
vt 0.7395 0.4474
vt 0.7437 0.4517
vt 0.5678 0.1004
vt 0.5977 0.1004
vt 0.5977 0.1302
vt 0.5678 0.1302
vt 0.4966 0.9202
vt 0.4889 0.8974
vt 0.5044 0.8962
vt 0.5096 0.9116
vt 0.5789 0.1887
vt 0.6418 0.1887
vt 0.6418 0.2185
vt 0.5789 0.2185
vt 0.8079 0.5495
vt 0.8161 0.5627
vt 0.7241 0.5786
vt 0.1608 0.3971
vt 0.1747 0.3901
vt 0.1688 0.4061
vt 0.1894 0.4069
vt 0.1807 0.4197
vt 0.4354 0.0121
vt 0.4763 0.0121
vt 0.4763 0.0420
vt 0.4354 0.0420
vt 0.4796 0.1004
vt 0.5094 0.1004
vt 0.5094 0.1302
vt 0.4796 0.1302
vt 0.7913 0.6136
vt 0.8049 0.6061
vt 0.4906 0.1887
vt 0.5204 0.1887
vt 0.5204 0.2185
vt 0.4906 0.2185
vt 0.6447 0.6392
vt 0.6529 0.6524
vt 0.3913 0.1004
vt 0.4211 0.1004
vt 0.4211 0.1302
vt 0.3913 0.1302
vt 0.6281 0.7033
vt 0.6417 0.6957
vt 0.4023 0.1887
vt 0.4322 0.1887
vt 0.4322 0.2185
vt 0.4023 0.2185
vt 0.8977 0.7288
vt 0.9059 0.7420
vt 0.3030 0.1004
vt 0.3328 0.1004
vt 0.3328 0.1302
vt 0.3030 0.1302
vt 0.8811 0.7929
vt 0.8947 0.7854
vt 0.3140 0.1887
vt 0.3439 0.1887
vt 0.3439 0.2185
vt 0.3140 0.2185
vt 0.7763 0.7288
vt 0.7845 0.7420
vt 0.8479 0.5786
vt 0.2147 0.1004
vt 0.2445 0.1004
vt 0.2445 0.1302
vt 0.2147 0.1302
vt 0.7597 0.7929
vt 0.7733 0.7854
vt 0.2257 0.1887
vt 0.2556 0.1887
vt 0.2556 0.2185
vt 0.2257 0.2185
vt 0.8373 0.5495
vt 0.8455 0.5627
vt 0.0602 0.0121
vt 0.1011 0.0121
vt 0.1011 0.0420
vt 0.0602 0.0420
vt 0.7665 0.1887
vt 0.7964 0.1887
vt 0.7964 0.2185
vt 0.7665 0.2185
vt 0.1264 0.1004
vt 0.1563 0.1004
vt 0.1563 0.1302
vt 0.1264 0.1302
vt 0.8207 0.6136
vt 0.8343 0.6061
vt 0.1374 0.1887
vt 0.1673 0.1887
vt 0.1673 0.2185
vt 0.1374 0.2185
vt 0.8675 0.7288
vt 0.8757 0.7420
vt 0.8645 0.7538
vt 0.8509 0.7463
vt 0.8207 0.7033
vt 0.8343 0.6957
vt 0.8456 0.7075
vt 0.8373 0.7207
vt 0.8373 0.6392
vt 0.8456 0.6524
vt 0.8343 0.6642
vt 0.8207 0.6566
vt 0.8327 0.2185
vt 0.8327 0.1887
vt 0.8626 0.1887
vt 0.8626 0.2185
vt 0.8509 0.7929
vt 0.8449 0.7696
vt 0.8604 0.7696
vt 0.8645 0.7854
vt 0.0491 0.2185
vt 0.0491 0.1887
vt 0.0790 0.1887
vt 0.0790 0.2185
vt 0.9702 0.4773
vt 0.9838 0.4848
vt 0.7110 0.7288
vt 0.7193 0.7420
vt 0.5793 0.7923
vt 0.5920 0.7834
vt 0.6045 0.7939
vt 0.5977 0.8079
vt 0.9651 0.0121
vt 0.9950 0.0121
vt 0.9950 0.0861
vt 0.9651 0.0861
vt 0.9502 0.6799
vt 0.9347 0.6799
vt 0.8977 0.6392
vt 0.9059 0.6524
vt 0.9210 0.1004
vt 0.9509 0.1004
vt 0.9509 0.1302
vt 0.9210 0.1302
vt 0.7913 0.7033
vt 0.7852 0.6799
vt 0.8008 0.6799
vt 0.8049 0.6957
vt 0.8161 0.7075
vt 0.8079 0.7207
vt 0.7597 0.7033
vt 0.7733 0.6957
vt 0.7845 0.7075
vt 0.7763 0.7207
vt 0.1809 0.6979
vt 0.2050 0.6979
vt 0.2050 0.7055
vt 0.1809 0.7055
vt 0.1568 0.7055
vt 0.1568 0.6979
vt 0.1327 0.7055
vt 0.1327 0.6979
vt 0.7597 0.4343
vt 0.7733 0.4267
vt 0.7845 0.4385
vt 0.7763 0.4517
vt 0.3605 0.3352
vt 0.3679 0.3489
vt 0.6782 0.2438
vt 0.7081 0.2438
vt 0.7081 0.2627
vt 0.6782 0.2627
vt 0.7665 0.2438
vt 0.7964 0.2438
vt 0.7964 0.2627
vt 0.7665 0.2627
vt 0.8768 0.1445
vt 0.9067 0.1445
vt 0.9067 0.1744
vt 0.8768 0.1744
vt 0.9210 0.1887
vt 0.9509 0.1887
vt 0.9509 0.2185
vt 0.9210 0.2185
vt 0.7763 0.6392
vt 0.7845 0.6524
vt 0.7733 0.6642
vt 0.7597 0.6566
vt 0.9059 0.7075
vt 0.8977 0.7207
vt 0.9651 0.2185
vt 0.9651 0.1887
vt 0.9950 0.1887
vt 0.9950 0.2185
vt 0.7537 0.6799
vt 0.7692 0.6799
vt 0.0123 0.6898
vt 0.0123 0.6823
vt 0.0364 0.6823
vt 0.0605 0.6823
vt 0.1087 0.6898
vt 0.1087 0.6823
vt 0.0846 0.6823
vt 0.8161 0.5282
vt 0.8079 0.5414
vt 0.6944 0.6136
vt 0.7080 0.6061
vt 0.8207 0.3876
vt 0.8343 0.3952
vt 0.8302 0.4110
vt 0.8147 0.4110
vt 0.8079 0.3702
vt 0.8161 0.3834
vt 0.2808 0.3378
vt 0.2939 0.3463
vt 0.8327 0.1004
vt 0.8626 0.1004
vt 0.8626 0.1302
vt 0.8327 0.1302
vt 0.8757 0.7972
vt 0.8592 0.8016
vt 0.8675 0.8104
vt 0.6281 0.5239
vt 0.6221 0.5006
vt 0.6376 0.5006
vt 0.6417 0.5164
vt 0.9868 0.4598
vt 0.9950 0.4730
vt 0.3059 0.4110
vt 0.2891 0.4143
vt 0.2967 0.4236
vt 0.0712 0.1445
vt 0.1011 0.1445
vt 0.1011 0.1744
vt 0.0712 0.1744
vt 0.8455 0.6179
vt 0.8290 0.6223
vt 0.8373 0.6311
vt 0.9045 0.4110
vt 0.9201 0.4110
vt 0.6447 0.4598
vt 0.6529 0.4730
vt 0.6417 0.4848
vt 0.6281 0.4773
vt 0.6608 0.7033
vt 0.6743 0.6957
vt 0.6856 0.7075
vt 0.6690 0.7120
vt 0.6773 0.7207
vt 0.8509 0.7033
vt 0.8449 0.6799
vt 0.8604 0.6799
vt 0.8645 0.6957
vt 0.1595 0.1445
vt 0.1894 0.1445
vt 0.1894 0.1744
vt 0.1595 0.1744
vt 0.6703 0.6799
vt 0.6547 0.6799
vt 0.6562 0.6741
vt 0.6608 0.6566
vt 0.6744 0.6642
vt 0.8079 0.2805
vt 0.8161 0.2937
vt 0.8456 0.7972
vt 0.8290 0.8016
vt 0.8373 0.8104
vt 0.1485 0.0562
vt 0.1783 0.0562
vt 0.1783 0.0861
vt 0.1485 0.0861
vt 0.1881 0.3971
vt 0.2020 0.3901
vt 0.6944 0.4343
vt 0.7080 0.4267
vt 0.7193 0.4385
vt 0.7110 0.4517
vt 0.8768 0.0562
vt 0.9067 0.0562
vt 0.9067 0.0861
vt 0.8768 0.0861
vt 0.7845 0.7972
vt 0.7680 0.8016
vt 0.7763 0.8104
vt 0.8751 0.4110
vt 0.8906 0.4110
vt 0.9271 0.3702
vt 0.9354 0.3834
vt 0.9241 0.3952
vt 0.9105 0.3876
vt 0.6608 0.5239
vt 0.6743 0.5164
vt 0.6856 0.5282
vt 0.6690 0.5327
vt 0.6773 0.5414
vt 0.7271 0.7929
vt 0.7210 0.7696
vt 0.7366 0.7696
vt 0.7407 0.7854
vt 0.2478 0.1445
vt 0.2777 0.1445
vt 0.2777 0.1744
vt 0.2478 0.1744
vt 0.6703 0.5006
vt 0.6547 0.5006
vt 0.6562 0.4948
vt 0.6608 0.4773
vt 0.6744 0.4848
vt 0.8675 0.6392
vt 0.8757 0.6524
vt 0.8645 0.6642
vt 0.8509 0.6566
vt 0.8509 0.4343
vt 0.8645 0.4267
vt 0.8757 0.4385
vt 0.8592 0.4430
vt 0.8675 0.4517
vt 0.2368 0.0562
vt 0.2666 0.0562
vt 0.2666 0.0861
vt 0.2368 0.0861
vt 0.9059 0.7972
vt 0.8894 0.8016
vt 0.8977 0.8104
vt 0.9045 0.5903
vt 0.9201 0.5903
vt 0.8977 0.3702
vt 0.9059 0.3834
vt 0.8947 0.3952
vt 0.8811 0.3876
vt 0.8509 0.5239
vt 0.8645 0.5164
vt 0.8757 0.5282
vt 0.8592 0.5327
vt 0.8675 0.5414
vt 0.8811 0.5239
vt 0.8751 0.5006
vt 0.8906 0.5006
vt 0.8947 0.5164
vt 0.3361 0.1445
vt 0.3659 0.1445
vt 0.3659 0.1744
vt 0.3361 0.1744
vt 0.8604 0.5006
vt 0.8449 0.5006
vt 0.8464 0.4948
vt 0.8509 0.4773
vt 0.8645 0.4848
vt 0.7437 0.7288
vt 0.7519 0.7420
vt 0.7407 0.7538
vt 0.7271 0.7463
vt 0.6608 0.3446
vt 0.6743 0.3371
vt 0.6856 0.3489
vt 0.6690 0.3533
vt 0.6773 0.3621
vt 0.3250 0.0562
vt 0.3549 0.0562
vt 0.3549 0.0861
vt 0.3250 0.0861
vt 0.6529 0.7075
vt 0.6364 0.7120
vt 0.6447 0.7207
vt 0.8147 0.3213
vt 0.8302 0.3213
vt 0.9271 0.5495
vt 0.9354 0.5627
vt 0.9241 0.5745
vt 0.9105 0.5670
vt 0.6608 0.4343
vt 0.6743 0.4267
vt 0.6856 0.4385
vt 0.6690 0.4430
vt 0.6773 0.4517
vt 0.7271 0.5239
vt 0.7210 0.5006
vt 0.7366 0.5006
vt 0.7407 0.5164
vt 0.4244 0.1445
vt 0.4542 0.1445
vt 0.4542 0.1744
vt 0.4244 0.1744
vt 0.6703 0.4110
vt 0.6547 0.4110
vt 0.6562 0.4051
vt 0.6608 0.3876
vt 0.6744 0.3952
vt 0.8977 0.4598
vt 0.9059 0.4730
vt 0.8947 0.4848
vt 0.8811 0.4773
vt 0.9702 0.4343
vt 0.9838 0.4267
vt 0.9950 0.4385
vt 0.9785 0.4430
vt 0.9868 0.4517
vt 0.4133 0.0562
vt 0.4432 0.0562
vt 0.4432 0.0861
vt 0.4133 0.0861
vt 0.7996 0.6223
vt 0.8161 0.6179
vt 0.8079 0.6311
vt 0.9347 0.7696
vt 0.9502 0.7696
vt 0.8373 0.2805
vt 0.8455 0.2937
vt 0.8343 0.3055
vt 0.8207 0.2980
vt 0.6944 0.5239
vt 0.7080 0.5164
vt 0.7027 0.5327
vt 0.7193 0.5282
vt 0.7110 0.5414
vt 0.6281 0.4343
vt 0.6221 0.4110
vt 0.6376 0.4110
vt 0.6417 0.4267
vt 0.5127 0.1445
vt 0.5425 0.1445
vt 0.5425 0.1744
vt 0.5127 0.1744
vt 0.7040 0.5006
vt 0.6884 0.5006
vt 0.6899 0.4948
vt 0.6944 0.4773
vt 0.7080 0.4848
vt 0.7437 0.4598
vt 0.7519 0.4730
vt 0.7407 0.4848
vt 0.7271 0.4773
vt 0.9702 0.3446
vt 0.9838 0.3371
vt 0.9950 0.3489
vt 0.9785 0.3533
vt 0.9868 0.3621
vt 0.5016 0.0562
vt 0.5315 0.0562
vt 0.5315 0.0861
vt 0.5016 0.0861
vt 0.0812 0.3970
vt 0.0951 0.3900
vt 0.9687 0.3038
vt 0.9838 0.3055
vt 0.9797 0.3213
vt 0.9641 0.3213
vt 0.9702 0.2980
vt 0.1989 0.9136
vt 0.1882 0.9249
vt 0.1705 0.0121
vt 0.4211 0.0121
vt 0.4211 0.0420
vt 0.1705 0.0420
vt 0.5261 0.9266
vt 0.5189 0.9404
vt 0.2492 0.7367
vt 0.2733 0.7292
vt 0.3215 0.7292
vt 0.3696 0.7367
vt 0.3456 0.7292
vt 0.3696 0.7292
vt 0.2492 0.7292
vt 0.9573 0.7288
vt 0.9655 0.7420
vt 0.9543 0.7538
vt 0.9407 0.7463
vt 0.9407 0.4343
vt 0.9543 0.4267
vt 0.9655 0.4385
vt 0.9490 0.4430
vt 0.9573 0.4517
vt 0.4442 0.8506
vt 0.4482 0.8805
vt 0.4328 0.8784
vt 0.1021 0.3278
vt 0.1098 0.3414
vt 0.1267 0.7211
vt 0.1267 0.7136
vt 0.1508 0.7136
vt 0.1749 0.7136
vt 0.1990 0.7136
vt 0.7162 0.9540
vt 0.7127 0.9363
vt 0.7282 0.9372
vt 0.7302 0.9473
vt 0.3898 0.7762
vt 0.4139 0.7762
vt 0.4139 0.7837
vt 0.3898 0.7837
vt 0.2291 0.6979
vt 0.2291 0.7055
vt 0.7763 0.3702
vt 0.7845 0.3834
vt 0.0846 0.6979
vt 0.0846 0.7055
vt 0.0605 0.6979
vt 0.0123 0.7055
vt 0.0364 0.6979
vt 0.0123 0.6979
vt 0.1086 0.7055
vt 0.1086 0.6979
vt 0.7223 0.0121
vt 0.7522 0.0121
vt 0.7522 0.0420
vt 0.7223 0.0420
vt 0.7333 0.8215
vt 0.7407 0.8352
vt 0.6120 0.2438
vt 0.6418 0.2438
vt 0.6418 0.2627
vt 0.6120 0.2627
vt 0.0785 0.7680
vt 0.1267 0.7605
vt 0.1267 0.7680
vt 0.1026 0.7680
vt 0.0545 0.7680
vt 0.0304 0.7605
vt 0.0304 0.7680
vt 0.1448 0.7605
vt 0.1448 0.7680
vt 0.5237 0.2438
vt 0.5536 0.2438
vt 0.5536 0.2627
vt 0.5237 0.2627
vt 0.8416 0.8215
vt 0.8491 0.8352
vt 0.1689 0.7367
vt 0.2411 0.7292
vt 0.1929 0.7367
vt 0.2411 0.7367
vt 0.2170 0.7367
vt 0.0123 0.7367
vt 0.0123 0.7292
vt 0.9139 0.8215
vt 0.9213 0.8352
vt 0.7333 0.9010
vt 0.7407 0.9147
vt 0.7332 0.9217
vt 0.7201 0.9134
vt 0.9651 0.1004
vt 0.9950 0.1004
vt 0.9950 0.1744
vt 0.9651 0.1744
vt 0.0050 0.1445
vt 0.0569 0.1445
vt 0.0569 0.1744
vt 0.0050 0.1744
vt 0.5298 0.7905
vt 0.5056 0.7836
vt 0.5202 0.8027
vt 0.8327 0.0121
vt 0.9067 0.0121
vt 0.9067 0.0420
vt 0.8327 0.0420
vt 0.8055 0.9010
vt 0.8129 0.9147
vt 0.8055 0.9217
vt 0.7923 0.9134
vt 0.8768 0.1887
vt 0.9067 0.1887
vt 0.9067 0.2185
vt 0.8768 0.2185
vt 0.9573 0.5495
vt 0.9655 0.5627
vt 0.9543 0.5745
vt 0.9407 0.5670
vt 0.8327 0.1445
vt 0.8626 0.1445
vt 0.8626 0.1744
vt 0.8327 0.1744
vt 0.4237 0.7707
vt 0.4366 0.7564
vt 0.4379 0.7645
vt 0.9210 0.1445
vt 0.9509 0.1445
vt 0.9509 0.1744
vt 0.9210 0.1744
vt 0.8373 0.3702
vt 0.8455 0.3834
vt 0.7193 0.6179
vt 0.7110 0.6311
vt 0.7665 0.1445
vt 0.7964 0.1445
vt 0.7964 0.1744
vt 0.7665 0.1744
vt 0.1328 0.7837
vt 0.1328 0.7762
vt 0.1568 0.7762
vt 0.1809 0.7762
vt 0.2050 0.7837
vt 0.2050 0.7762
vt 0.8161 0.4385
vt 0.8079 0.4517
vt 0.6782 0.1445
vt 0.7081 0.1445
vt 0.7081 0.1744
vt 0.6782 0.1744
vt 0.7223 0.1887
vt 0.7522 0.1887
vt 0.7522 0.2185
vt 0.7223 0.2185
vt 0.9407 0.3446
vt 0.9543 0.3371
vt 0.8327 0.0562
vt 0.8626 0.0562
vt 0.8626 0.0861
vt 0.8327 0.0861
vt 0.2492 0.7449
vt 0.3696 0.7449
vt 0.3215 0.7524
vt 0.2974 0.7524
vt 0.3696 0.7524
vt 0.3456 0.7524
vt 0.2492 0.7524
vt 0.2733 0.7524
vt 0.9702 0.3876
vt 0.9838 0.3952
vt 0.9797 0.4110
vt 0.9641 0.4110
vt 0.6608 0.2980
vt 0.6744 0.3055
vt 0.6703 0.3213
vt 0.6547 0.3213
vt 0.8509 0.3876
vt 0.8645 0.3952
vt 0.8604 0.4110
vt 0.8449 0.4110
vt 0.2090 0.3279
vt 0.2167 0.3415
vt 0.2492 0.7680
vt 0.2733 0.7605
vt 0.3215 0.7605
vt 0.3696 0.7680
vt 0.3696 0.7605
vt 0.2492 0.7605
vt 0.7110 0.3702
vt 0.7193 0.3834
vt 0.7080 0.3952
vt 0.6944 0.3876
vt 0.5470 0.7923
vt 0.5597 0.7834
vt 0.5722 0.7939
vt 0.5654 0.8079
vt 0.5454 0.7456
vt 0.5299 0.7473
vt 0.7763 0.4598
vt 0.7845 0.4730
vt 0.9210 0.0562
vt 0.9509 0.0562
vt 0.9509 0.0861
vt 0.9210 0.0861
vt 0.9573 0.2805
vt 0.9655 0.2937
vt 0.2492 0.7211
vt 0.2492 0.7136
vt 0.3456 0.7136
vt 0.2974 0.7211
vt 0.3456 0.7211
vt 0.3215 0.7211
vt 0.6529 0.5282
vt 0.6447 0.5414
vt 0.9105 0.7929
vt 0.9241 0.7854
vt 0.9105 0.6566
vt 0.9241 0.6642
vt 0.0846 0.7837
vt 0.1087 0.7762
vt 0.0846 0.7762
vt 0.2291 0.7762
vt 0.2531 0.7837
vt 0.2531 0.7762
vt 0.8302 0.6799
vt 0.8147 0.6799
vt 0.9271 0.7288
vt 0.9354 0.7420
vt 0.0605 0.7762
vt 0.0123 0.7837
vt 0.0364 0.7762
vt 0.0123 0.7762
vt 0.7407 0.9598
vt 0.7317 0.9724
vt 0.7913 0.6566
vt 0.8049 0.6642
vt 0.5834 0.8210
vt 0.5908 0.8347
vt 0.9139 0.9010
vt 0.9213 0.9147
vt 0.1929 0.7680
vt 0.1689 0.7680
vt 0.2411 0.7605
vt 0.2170 0.7680
vt 0.2411 0.7680
vt 0.0123 0.7680
vt 0.0123 0.7605
vt 0.5624 0.4595
vt 0.4721 0.4595
vt 0.4717 0.4423
vt 0.5625 0.4423
vt 0.9868 0.5495
vt 0.9950 0.5627
vt 0.7694 0.8215
vt 0.7768 0.8352
vt 0.3456 0.7055
vt 0.3456 0.6979
vt 0.3696 0.7055
vt 0.4178 0.6979
vt 0.3937 0.7055
vt 0.4178 0.7055
vt 0.2552 0.7055
vt 0.2372 0.7055
vt 0.2372 0.6979
vt 0.2552 0.6979
vt 0.3275 0.6979
vt 0.3275 0.7055
vt 0.3034 0.7055
vt 0.2793 0.7055
vt 0.2798 0.4423
vt 0.3811 0.4357
vt 0.3810 0.4423
vt 0.2904 0.4423
vt 0.2904 0.4595
vt 0.2798 0.4595
vt 0.0386 0.4356
vt 0.1818 0.4423
vt 0.3937 0.4359
vt 0.3937 0.4423
vt 0.1818 0.4595
vt 0.3816 0.3153
vt 0.3937 0.3854
vt 0.1738 0.4423
vt 0.0733 0.4423
vt 0.3802 0.4595
vt 0.4603 0.4367
vt 0.4602 0.4423
vt 0.3937 0.4595
vt 0.1738 0.4595
vt 0.0731 0.4595
vt 0.3937 0.3397
vt 0.0390 0.4423
vt 0.0642 0.4423
vt 0.4594 0.4595
vt 0.4718 0.4369
vt 0.3937 0.3153
vt 0.0641 0.4595
vt 0.0395 0.4595
vt 0.4614 0.3854
vt 0.4749 0.3153
vt 0.4161 0.3624
vt 0.4390 0.3628
vt 0.4162 0.3394
vt 0.4620 0.3153
vt 0.5627 0.4355
vt 0.0361 0.3156
vt 0.4623 0.3398
vt 0.5640 0.3130
vt 0.4392 0.3400
vt 0.7567 0.5786
vt 0.9868 0.2805
vt 0.9950 0.2937
vt 0.0852 0.4015
vt 0.1098 0.4068
vt 0.1010 0.4196
vt 0.6251 0.3993
vt 0.6417 0.3952
vt 0.6281 0.3876
vt 0.8781 0.3096
vt 0.9868 0.3702
vt 0.9950 0.3834
vt 0.0123 0.8408
vt 0.0162 0.8257
vt 0.0244 0.8408
vt 0.0725 0.8408
vt 0.0484 0.8408
vt 0.1529 0.8257
vt 0.0966 0.8408
vt 0.1448 0.8408
vt 0.1207 0.8408
vt 0.1568 0.8408
vt 0.7241 0.4890
vt 0.9075 0.4890
vt 0.6773 0.2805
vt 0.6856 0.2937
vt 0.8781 0.4890
vt 0.8781 0.5786
vt 0.8675 0.3702
vt 0.8757 0.3834
vt 0.7241 0.7579
vt 0.8177 0.4890
vt 0.8373 0.7288
vt 0.8456 0.7420
vt 0.2167 0.4069
vt 0.2000 0.4107
vt 0.2080 0.4197
vt 0.8479 0.6683
vt 0.9271 0.6392
vt 0.9354 0.6524
vt 0.9354 0.7972
vt 0.9271 0.8104
vt 0.6884 0.4110
vt 0.7040 0.4110
vt 0.8079 0.6392
vt 0.8161 0.6524
vt 0.7193 0.3489
vt 0.7110 0.3621
vt 0.0050 0.0562
vt 0.0459 0.0562
vt 0.0459 0.0861
vt 0.0050 0.0861
vt 0.1374 0.2438
vt 0.1673 0.2438
vt 0.1673 0.2627
vt 0.1374 0.2627
vt 0.1816 0.2438
vt 0.2114 0.2438
vt 0.2114 0.2627
vt 0.1816 0.2627
vt 0.0933 0.2185
vt 0.0933 0.1887
vt 0.1232 0.1887
vt 0.1232 0.2185
vt 0.5925 0.8740
vt 0.6065 0.8673
vt 0.1154 0.1445
vt 0.1452 0.1445
vt 0.1452 0.1744
vt 0.1154 0.1744
vt 0.7913 0.7929
vt 0.7852 0.7696
vt 0.8008 0.7696
vt 0.8049 0.7854
vt 0.5708 0.7698
vt 0.8161 0.7972
vt 0.8079 0.8104
vt 0.6171 0.8797
vt 0.6081 0.8924
vt 0.9655 0.3489
vt 0.9573 0.3621
vt 0.5385 0.7698
vt 0.8464 0.7638
vt 0.9347 0.4110
vt 0.9502 0.4110
vt 0.9377 0.7579
vt 0.7241 0.6683
vt 0.7110 0.4598
vt 0.7193 0.4730
vt 0.7845 0.6179
vt 0.7721 0.6267
vt 0.7763 0.6311
vt 0.6529 0.4385
vt 0.6406 0.4474
vt 0.6447 0.4517
vt 0.8177 0.3096
vt 0.9672 0.7579
vt 0.6773 0.3702
vt 0.6856 0.3834
vt 0.9059 0.3489
vt 0.8935 0.3577
vt 0.8977 0.3621
vt 0.7519 0.5282
vt 0.7395 0.5370
vt 0.7437 0.5414
vt 0.9075 0.5786
vt 0.6251 0.7579
vt 0.8675 0.4598
vt 0.8757 0.4730
vt 0.9354 0.5282
vt 0.9230 0.5370
vt 0.9271 0.5414
vt 0.9059 0.5282
vt 0.8935 0.5370
vt 0.8977 0.5414
vt 0.8781 0.3993
vt 0.6577 0.7579
vt 0.6773 0.4598
vt 0.6856 0.4730
vt 0.9059 0.6179
vt 0.8935 0.6267
vt 0.8977 0.6311
vt 0.7519 0.7972
vt 0.7395 0.8060
vt 0.7437 0.8104
vt 0.9075 0.3993
vt 0.7883 0.7579
vt 0.6773 0.6392
vt 0.6856 0.6524
vt 0.8455 0.5282
vt 0.8332 0.5370
vt 0.8373 0.5414
vt 0.8757 0.7075
vt 0.8634 0.7164
vt 0.8675 0.7207
vt 0.6251 0.4890
vt 0.9377 0.5786
vt 0.2986 0.3215
vt 0.3059 0.3353
vt 0.0144 0.5078
vt 0.0146 0.6680
vt 0.4485 0.7779
vt 0.4569 0.7885
vt 0.4592 0.7914
vt 0.4460 0.7991
vt 0.4498 0.8038
vt 0.8161 0.3489
vt 0.8037 0.3577
vt 0.8079 0.3621
vt 0.5054 0.8903
vt 0.4899 0.8914
vt 0.9362 0.4051
vt 0.6447 0.3702
vt 0.6529 0.3834
vt 0.5836 0.6686
vt 0.5771 0.6751
vt 0.5772 0.5010
vt 0.5837 0.5074
vt 0.0050 0.5071
vt 0.0115 0.5008
vt 0.0116 0.6750
vt 0.0680 0.1153
vt 0.0680 0.1302
vt 0.0611 0.1302
vt 0.0614 0.1004
vt 0.0680 0.1004
vt 0.0365 0.1153
vt 0.0365 0.1302
vt 0.0050 0.1302
vt 0.0050 0.1153
vt 0.0050 0.1004
vt 0.0365 0.1004
vn -0.5276 -0.8495 0.0023
vn -0.0002 -1.0000 -0.0001
vn 0.5273 -0.8497 -0.0026
vn -0.0046 0.0011 -1.0000
vn -0.7157 0.0009 -0.6984
vn -0.5815 0.5788 -0.5718
vn -0.7092 -0.0006 0.7050
vn -0.5761 0.5787 0.5772
vn 0.7092 0.0006 -0.7050
vn 0.5764 0.5786 -0.5771
vn 0.7157 -0.0009 0.6984
vn 0.5817 0.5785 0.5719
vn 0.0046 -0.0010 1.0000
vn 1.0000 -0.0002 -0.0046
vn -0.0040 0.4559 -0.8900
vn -0.8890 0.4579 0.0042
vn 0.0042 0.4557 0.8901
vn 0.8892 0.4576 -0.0041
vn -1.0000 0.0002 0.0046
vn 0.9056 0.4240 -0.0041
vn 0.0045 0.2587 0.9659
vn -0.0044 0.2589 -0.9659
vn -0.9659 0.2590 0.0045
vn 0.9660 0.2586 -0.0044
vn 0.0217 0.2623 0.9647
vn 0.0044 0.3737 0.9276
vn 0.0002 1.0000 0.0001
vn -0.0046 0.0001 -1.0000
vn 0.0046 -0.0001 1.0000
vn 0.0276 0.2783 -0.9601
vn -0.0040 0.4711 -0.8821
vn 0.3774 -0.8497 0.3683
vn 0.3739 -0.8496 -0.3719
vn -0.3777 -0.8495 -0.3685
vn -0.3743 -0.8496 0.3717
vn -0.0026 -0.8495 -0.5276
vn 0.0023 -0.8496 0.5273
vn 0.8247 0.5655 -0.0080
usemtl keyboard_mat
s off
f 5/1/1 714/2/1 9/3/1 8/4/1
f 3/5/2 4/6/2 1/7/2 713/8/2
f 7/9/3 1/7/3 4/6/3 6/10/3
f 13/11/4 12/12/4 10/13/4 11/14/4
f 12/12/5 8/15/5 14/16/5 10/17/5
f 14/16/6 15/18/6 16/19/6 10/17/6
f 9/20/7 17/21/7 18/22/7 19/23/7
f 18/22/8 20/24/8 21/25/8 19/23/8
f 13/11/9 11/14/9 22/26/9 6/27/9
f 23/28/10 24/29/10 22/26/10 11/14/10
f 7/30/11 25/31/11 26/32/11 27/33/11
f 26/32/12 25/31/12 28/34/12 29/35/12
f 17/36/13 27/37/13 26/38/13 18/39/13
f 6/10/14 22/40/14 25/41/14 7/9/14
f 10/13/15 16/19/15 23/28/15 11/42/15
f 14/43/16 19/44/16 21/25/16 15/18/16
f 18/39/17 26/38/17 29/35/17 20/24/17
f 22/40/18 24/29/18 28/34/18 25/41/18
f 8/4/19 9/45/19 19/44/19 14/43/19
f 30/46/20 31/47/20 717/48/20 32/49/20 33/50/20
f 34/51/21 35/52/21 36/53/21 37/54/21
f 38/55/22 39/56/22 33/57/22
f 33/57/22 39/56/22 40/58/22 41/59/22
f 34/60/23 42/61/23 43/62/23 44/63/23
f 41/64/24 40/65/24 45/66/24 46/67/24
f 37/68/22 47/69/22 48/70/22 34/71/22
f 38/55/23 34/72/23 49/73/23 39/56/23
f 50/74/25 38/75/25 32/49/25 721/76/25 715/77/25 51/78/25
f 32/49/26 38/75/26 33/50/26
f 52/79/21 53/80/21 54/81/21 55/82/21
f 55/83/24 56/84/24 57/85/24 58/86/24
f 58/87/22 59/88/22 60/89/22 61/90/22
f 62/91/23 63/92/23 64/93/23 65/94/23
f 62/95/21 66/96/21 67/97/21 68/98/21
f 69/99/22 70/100/22 71/101/22 63/102/22
f 30/103/23 33/104/23 72/105/23 73/106/23
f 50/107/22 74/108/22 75/109/22 38/110/22
f 46/67/21 45/66/21 49/73/21 34/72/21
f 49/111/27 45/112/27 40/113/27 39/114/27
f 34/115/24 48/116/24 76/117/24 42/118/24
f 58/87/23 77/119/23 78/120/23 59/88/23
f 58/86/21 57/85/21 64/93/21 63/92/21
f 63/121/24 71/122/24 79/123/24 80/124/24
f 81/125/23 55/82/23 54/81/23 82/126/23
f 83/127/24 84/128/24 66/96/24 62/95/24
f 62/91/22 65/94/22 56/129/22 55/130/22
f 64/131/27 57/132/27 56/133/27 65/134/27
f 63/135/23 80/136/23 85/137/23 86/138/23
f 63/139/21 87/140/21 88/141/21 69/142/21
f 83/143/23 62/144/23 89/145/23 90/146/23
f 62/147/22 68/148/22 91/149/22 92/150/22
f 55/151/23 58/152/23 93/153/23 94/154/23
f 55/155/21 95/156/21 89/145/21 62/144/21
f 62/157/24 92/158/24 87/140/24 63/139/24
f 63/135/22 86/138/22 96/159/22 58/160/22
f 41/161/23 46/162/23 97/163/23 98/164/23
f 41/165/21 99/166/21 72/105/21 33/104/21
f 99/166/21 41/165/21 100/167/21
f 38/168/24 75/169/24 35/52/24 34/51/24
f 34/60/22 44/63/22 101/170/22 46/171/22
f 46/171/22 101/170/22 102/172/22
f 61/173/21 103/174/21 93/153/21 58/152/21
f 58/175/24 96/176/24 104/177/24 77/178/24
f 81/179/24 105/180/24 95/156/24 55/155/24
f 55/151/22 94/154/22 106/181/22 52/182/22
f 107/183/27 108/184/27 109/185/27 110/186/27
f 111/187/24 112/188/24 113/189/24 114/190/24
f 115/191/24 116/192/24 117/193/24 118/194/24
f 114/190/21 113/189/21 119/195/21 120/196/21
f 37/68/23 121/197/23 122/198/23 47/69/23
f 123/199/23 124/200/23 107/201/23 110/202/23
f 115/203/22 125/204/22 126/205/22 127/206/22
f 111/207/22 128/208/22 129/209/22 130/210/22
f 123/199/22 110/202/22 109/211/22 131/212/22
f 72/213/27 99/214/27 132/215/27 73/216/27
f 133/217/27 134/218/27 129/219/27 128/220/27
f 97/221/27 135/222/27 136/223/27 98/224/27
f 137/225/23 100/226/23 138/227/23 139/228/23
f 140/229/27 141/230/27 126/231/27 125/232/27
f 142/233/21 134/234/21 133/235/21 114/236/21
f 130/237/24 129/238/24 134/234/24 142/233/24
f 122/239/27 76/240/27 48/241/27 47/242/27
f 143/243/27 144/244/27 145/245/27 146/246/27
f 127/247/23 147/248/23 148/249/23 149/250/23
f 127/247/22 149/250/22 150/251/22 151/252/22
f 42/118/21 76/117/21 122/198/21 121/197/21
f 131/253/22 152/254/22 153/255/22 154/256/22
f 155/257/21 156/258/21 157/259/21
f 158/260/21 159/261/21 155/257/21 157/259/21
f 160/262/23 161/263/23 162/264/23 163/265/23
f 157/266/24 164/267/24 165/268/24 166/269/24
f 160/262/22 163/265/22 167/270/22 168/271/22
f 151/272/24 150/273/24 169/274/24 170/275/24
f 171/276/27 172/277/27 173/278/27 174/279/27
f 97/163/21 46/162/21 102/280/21
f 175/281/21 135/282/21 97/163/21 102/280/21
f 151/283/22 176/284/22 177/285/22 178/286/22
f 162/287/27 179/288/27 167/289/27 163/290/27
f 180/291/27 181/292/27 182/293/27 183/294/27
f 102/295/24 101/296/24 184/297/24 185/298/24
f 186/299/22 187/300/22 188/301/22 166/302/22
f 166/302/22 188/301/22 189/303/22
f 190/304/21 179/305/21 162/264/21 161/263/21
f 168/306/23 190/307/23 180/308/23 183/309/23
f 185/298/21 184/297/21 43/62/21 42/61/21
f 191/310/27 192/311/27 193/312/27 194/313/27
f 168/306/22 183/309/22 182/314/22 195/315/22
f 196/316/27 197/317/27 198/318/27 199/319/27
f 200/320/23 201/321/23 202/322/23 203/323/23
f 204/324/27 205/325/27 177/326/27 176/327/27
f 189/328/24 188/329/24 206/330/24 207/331/24
f 208/332/27 209/333/27 210/334/27 211/335/27
f 178/336/23 212/337/23 213/338/23 214/339/23
f 178/336/22 214/339/22 215/340/22 216/341/22
f 195/342/24 182/343/24 181/344/24 217/345/24
f 218/346/21 219/347/21 220/348/21
f 221/349/21 222/350/21 218/346/21 220/348/21
f 217/345/21 181/344/21 180/308/21 190/307/21
f 223/351/27 224/352/27 225/353/27 226/354/27
f 220/355/24 227/356/24 228/357/24 229/358/24
f 195/359/22 230/360/22 231/361/22 232/362/22
f 233/363/21 224/364/21 223/365/21 185/366/21
f 234/367/23 233/368/23 235/369/23 236/370/23
f 216/371/24 215/372/24 237/373/24 238/374/24
f 216/375/22 239/376/22 240/377/22 241/378/22
f 242/379/27 243/380/27 231/381/27 230/382/27
f 244/383/27 245/384/27 246/385/27 247/386/27
f 248/387/23 249/388/23 250/389/23 251/390/23
f 248/387/22 251/390/22 252/391/22 229/392/22
f 229/392/22 252/391/22 253/393/22
f 254/394/21 243/395/21 242/396/21 217/397/21
f 232/398/23 254/399/23 244/400/23 247/401/23
f 255/402/27 256/403/27 257/404/27 258/405/27
f 232/398/22 247/401/22 246/406/22 259/407/22
f 260/408/27 261/409/27 262/410/27 263/411/27
f 264/412/23 265/413/23 266/414/23 267/415/23
f 268/416/27 269/417/27 240/418/27 239/419/27
f 253/420/24 252/421/24 270/422/24 271/423/24
f 272/424/27 273/425/27 274/426/27 275/427/27
f 241/428/23 276/429/23 277/430/23 278/431/23
f 241/428/22 278/431/22 279/432/22 280/433/22
f 281/434/21 282/435/21 283/436/21
f 284/437/21 285/438/21 281/434/21 283/436/21
f 286/439/21 245/440/21 244/400/21 254/399/21
f 259/441/24 246/442/24 245/440/24 286/439/24
f 287/443/27 288/444/27 289/445/27 290/446/27
f 283/447/24 291/448/24 292/449/24 293/450/24
f 294/451/23 295/452/23 287/453/23 290/454/23
f 280/455/24 279/456/24 296/457/24 297/458/24
f 294/451/22 290/454/22 289/459/22 298/460/22
f 280/461/22 299/462/22 300/463/22 301/464/22
f 302/465/23 303/466/23 304/467/23 305/468/23
f 302/465/22 305/468/22 306/469/22 293/470/22
f 293/470/22 306/469/22 307/471/22
f 308/472/27 309/473/27 310/474/27 311/475/27
f 312/476/21 288/477/21 287/453/21 295/452/21
f 313/478/27 314/479/27 315/480/27 316/481/27
f 317/482/23 318/483/23 319/484/23 320/485/23
f 321/486/27 322/487/27 300/488/27 299/489/27
f 298/490/22 323/491/22 324/492/22 325/493/22
f 307/494/24 306/495/24 326/496/24 327/497/24
f 328/498/27 329/499/27 330/500/27 331/501/27
f 301/502/23 332/503/23 333/504/23 334/505/23
f 301/502/22 334/505/22 335/506/22 336/507/22
f 337/508/27 338/509/27 339/510/27 340/511/27
f 341/512/21 342/513/21 343/514/21
f 344/515/21 345/516/21 341/512/21 343/514/21
f 343/517/24 346/518/24 347/519/24 348/520/24
f 349/521/21 350/522/21 351/523/21 312/524/21
f 336/525/24 335/526/24 352/527/24 353/528/24
f 325/529/22 340/530/22 339/531/22 354/532/22
f 336/533/22 355/534/22 356/535/22 357/536/22
f 358/537/23 359/538/23 360/539/23 361/540/23
f 358/537/22 361/540/22 362/541/22 348/542/22
f 348/542/22 362/541/22 363/543/22
f 364/544/27 365/545/27 366/546/27 367/547/27
f 368/548/21 338/549/21 337/550/21 349/551/21
f 369/552/27 370/553/27 371/554/27 372/555/27
f 373/556/23 374/557/23 375/558/23 376/559/23
f 377/560/27 378/561/27 356/562/27 355/563/27
f 354/564/22 379/565/22 380/566/22 381/567/22
f 363/568/24 362/569/24 382/570/24 383/571/24
f 384/572/27 385/573/27 386/574/27 387/575/27
f 357/576/23 388/577/23 389/578/23 390/579/23
f 391/580/21 392/581/21 393/582/21
f 394/583/21 395/584/21 391/580/21 393/582/21
f 393/585/24 396/586/24 397/587/24 398/588/24
f 399/589/21 400/590/21 401/591/21 368/592/21
f 381/593/24 380/594/24 400/590/24 399/589/24
f 402/595/21 403/596/21 235/369/21 233/368/21
f 357/576/22 390/579/22 404/597/22 405/598/22
f 406/599/23 407/600/23 408/601/23 409/602/23
f 410/603/22 411/604/22 398/605/22
f 398/605/22 411/604/22 412/606/22 413/607/22
f 414/608/24 386/609/24 385/610/24 415/611/24
f 406/599/22 409/602/22 416/612/22 417/613/22
f 418/614/27 419/615/27 420/616/27 421/617/27
f 389/578/21 388/577/21 414/618/21
f 422/619/21 423/620/21 389/578/21 414/618/21
f 424/621/27 425/622/27 426/623/27 427/624/27
f 428/625/24 429/626/24 430/627/24 431/628/24
f 432/629/27 433/630/27 434/631/27 435/632/27
f 436/633/23 437/634/23 438/635/23 439/636/23
f 405/637/24 404/638/24 423/620/24 422/619/24
f 431/628/21 430/627/21 440/639/21 402/640/21
f 441/641/21 442/642/21 443/643/21 444/644/21
f 445/645/21 446/646/21 408/601/21 407/600/21
f 417/647/22 427/648/22 426/649/22 447/650/22
f 448/651/24 449/652/24 450/653/24 451/654/24
f 452/655/27 453/656/27 454/657/27 455/658/27
f 456/659/21 425/660/21 424/661/21 445/662/21
f 457/663/21 453/664/21 452/665/21 431/666/21
f 441/667/23 457/668/23 458/669/23 459/670/23
f 124/671/23 460/672/23 461/673/23 462/674/23
f 463/675/23 464/676/23 465/677/23 466/678/23
f 447/679/22 467/680/22 468/681/22 469/682/22
f 470/683/27 471/684/27 472/685/27 473/686/27
f 474/687/27 473/686/27 472/685/27 475/688/27
f 463/675/22 466/678/22 476/689/22 477/690/22
f 413/691/22 435/692/22 437/693/22
f 437/693/22 435/692/22 434/694/22 451/695/22
f 451/695/22 434/694/22 478/696/22
f 422/697/24 472/698/24 471/699/24 478/700/24
f 479/701/21 480/702/21 481/703/21 456/704/21
f 469/705/24 468/706/24 480/702/24 479/701/24
f 482/707/24 483/708/24 484/709/24 485/710/24
f 486/711/21 487/712/21 461/673/21 460/672/21
f 485/710/21 484/709/21 458/669/21 457/668/21
f 478/713/24 434/714/24 433/715/24 488/716/24
f 489/717/21 172/718/21 171/719/21 486/720/21
f 490/721/27 491/722/27 492/723/27 493/724/27
f 494/725/21 491/726/21 490/727/21 485/728/21
f 488/729/24 492/730/24 491/726/24 494/725/24
f 495/731/27 496/732/27 497/733/27 498/734/27
f 499/735/27 500/736/27 501/737/27 502/738/27
f 465/739/27 503/740/27 476/741/27 466/742/27
f 504/743/23 505/744/23 495/745/23 498/746/23
f 504/743/22 498/746/22 497/747/22 506/748/22
f 507/749/23 506/750/23 499/751/23 502/752/23
f 507/749/22 502/752/22 501/753/22 508/754/22
f 509/755/21 510/756/21 511/757/21 489/758/21
f 512/759/24 513/760/24 510/756/24 509/755/24
f 514/761/21 503/762/21 465/677/21 464/676/21
f 477/763/24 476/764/24 503/762/24 514/761/24
f 515/765/23 68/98/23 67/97/23 516/766/23
f 517/767/23 518/768/23 519/769/23 520/770/23
f 517/767/22 520/770/22 521/771/22 522/772/22
f 523/773/21 496/774/21 495/745/21 505/744/21
f 508/775/24 501/776/24 500/777/24 524/778/24
f 525/779/27 526/780/27 527/781/27 528/782/27
f 529/783/21 530/784/21 531/785/21 523/786/21
f 524/787/22 528/788/22 527/789/22 532/790/22
f 533/791/27 534/792/27 535/793/27 536/794/27
f 69/99/23 537/795/23 538/796/23 70/100/23
f 539/797/22 540/798/22 541/799/22 542/800/22
f 519/801/27 543/802/27 521/803/27 520/804/27
f 544/805/23 545/806/23 533/807/23 536/808/23
f 544/805/22 536/808/22 535/809/22 546/810/22
f 547/811/21 526/812/21 525/813/21 529/814/21
f 532/815/24 527/816/24 526/812/24 547/811/24
f 518/817/23 548/818/23 549/819/23 550/820/23
f 537/821/23 551/822/23 552/823/23 553/824/23
f 542/825/24 541/826/24 554/827/24 555/828/24
f 522/829/23 556/830/23 557/831/23 558/832/23
f 522/829/22 558/832/22 559/833/22 560/834/22
f 561/835/27 562/836/27 563/837/27 564/838/27
f 565/839/21 566/840/21 552/823/21 551/822/21
f 555/841/24 567/842/24 568/843/24 569/844/24
f 570/845/21 562/846/21 561/847/21 565/848/21
f 571/849/21 572/850/21 573/851/21 570/852/21
f 569/853/24 574/854/24 572/850/24 571/849/24
f 463/855/14 575/856/14 576/857/14 464/858/14
f 464/858/28 576/857/28 577/859/28 514/860/28
f 477/861/19 514/862/19 577/863/19 578/864/19
f 477/861/29 578/864/29 575/856/29 463/855/29
f 579/865/29 517/866/29 522/867/29
f 560/868/29 580/869/29 579/865/29 522/867/29
f 127/870/29 579/865/29 580/869/29 115/871/29
f 178/872/29 579/865/29 127/870/29 151/873/29
f 216/874/29 581/875/29 579/865/29 178/872/29
f 280/876/29 581/875/29 216/874/29 241/877/29
f 336/878/29 581/875/29 280/876/29 301/879/29
f 405/880/29 581/875/29 336/878/29 357/881/29
f 545/882/28 582/883/28 583/884/28
f 583/884/28 582/883/28 584/885/28 120/886/28
f 120/886/28 584/885/28 142/887/28 114/888/28
f 130/889/19 142/890/19 584/891/19 585/892/19
f 579/893/14 586/894/14 50/895/14 548/896/14
f 50/895/14 586/894/14 121/897/14 37/898/14
f 517/899/14 579/893/14 548/896/14 518/900/14
f 160/901/14 587/902/14 588/903/14 161/904/14
f 587/902/29 160/901/29 168/905/29
f 195/906/29 589/907/29 587/902/29 168/905/29
f 259/908/29 589/907/29 195/906/29 232/909/29
f 186/299/23 175/910/23 590/911/23 187/300/23
f 413/912/24 412/913/24 442/642/24 441/641/24
f 410/603/23 444/644/23 443/643/23 411/604/23
f 121/914/28 586/915/28 42/916/28
f 42/916/28 586/915/28 233/917/28 185/918/28
f 233/917/28 586/915/28 591/919/28 402/920/28
f 402/920/28 591/919/28 457/921/28 431/922/28
f 457/921/28 591/919/28 494/923/28 485/924/28
f 441/667/22 459/670/22 483/925/22 482/926/22
f 458/927/27 484/928/27 483/929/27 459/930/27
f 482/931/22 493/932/22 492/933/22 488/934/22
f 478/700/21 471/699/21 470/935/21 451/936/21
f 451/654/21 450/653/21 438/635/21 437/634/21
f 77/937/24 592/938/24 566/840/24 565/839/24
f 593/939/21 594/940/21 78/120/21 77/119/21
f 436/633/22 439/636/22 449/941/22 415/942/22
f 415/942/22 449/941/22 448/943/22
f 438/944/27 450/945/27 449/946/27 439/947/27
f 414/948/23 415/949/23 474/950/23 475/951/23
f 389/952/27 423/953/27 404/954/27 390/955/27
f 595/956/24 596/957/24 395/584/24 394/583/24
f 597/958/21 382/570/21 360/539/21 359/538/21
f 382/570/21 597/958/21 383/571/21
f 597/959/22 598/960/22 383/961/22
f 383/961/22 598/960/22 429/962/22 428/963/22
f 440/964/27 430/965/27 429/966/27 598/967/27
f 375/968/27 397/969/27 396/970/27 376/971/27
f 599/972/23 392/581/23 391/580/23 600/973/23
f 333/974/27 352/975/27 335/976/27 334/977/27
f 601/978/24 602/979/24 345/516/24 344/515/24
f 327/497/21 326/496/21 304/467/21 303/466/21
f 319/980/27 347/981/27 346/982/27 320/983/27
f 603/984/23 342/513/23 341/512/23 604/985/23
f 277/986/27 296/987/27 279/988/27 278/989/27
f 605/990/24 606/991/24 285/438/24 284/437/24
f 271/423/21 270/422/21 250/389/21 249/388/21
f 266/992/27 292/993/27 291/994/27 267/995/27
f 607/996/23 282/435/23 281/434/23 608/997/23
f 213/998/27 237/999/27 215/1000/27 214/1001/27
f 609/1002/24 610/1003/24 222/350/24 221/349/24
f 234/1004/21 206/330/21 590/911/21 175/910/21
f 206/330/21 234/1004/21 207/331/21
f 202/1005/27 228/1006/27 227/1007/27 203/1008/27
f 611/1009/23 219/347/23 218/346/23 612/1010/23
f 148/1011/27 169/1012/27 150/1013/27 149/1014/27
f 613/1015/24 614/1016/24 159/261/24 158/260/24
f 43/1017/27 184/1018/27 101/1019/27 44/1020/27
f 615/1021/27 616/1022/27 617/1023/27 618/1024/27
f 138/1025/27 165/1026/27 164/1027/27 139/1028/27
f 619/1029/23 156/258/23 155/257/23 620/1030/23
f 621/1031/27 117/1032/27 116/1033/27 622/1034/27
f 623/1035/24 624/1036/24 625/1037/24 626/1038/24
f 154/1039/22 618/1040/22 617/1041/22 627/1042/22
f 627/1043/24 617/1044/24 616/1045/24 512/1046/24
f 628/1047/27 629/1048/27 630/1049/27 631/1050/27
f 632/1051/23 633/1052/23 634/1053/23 635/1054/23
f 558/1055/27 557/1056/27 636/1057/27 559/1058/27
f 556/1059/21 543/1060/21 519/769/21 518/768/21
f 52/1061/24 106/1062/24 103/174/24 61/173/24
f 61/1063/22 638/1064/22 574/1065/22 569/1066/22
f 573/1067/27 572/1068/27 574/1069/27 638/1070/27
f 555/828/21 554/827/21 639/1071/21 640/1072/21
f 640/1073/24 641/1074/24 53/80/24 52/79/24
f 93/1075/27 103/1076/27 106/1077/27 94/1078/27
f 642/1079/23 515/1080/23 629/1081/23 628/1082/23
f 642/1079/22 628/1082/22 631/1083/22 643/1084/22
f 643/1085/22 644/1086/22 645/1087/22 646/1088/22
f 508/1089/19 524/1090/19 647/1091/19 648/1092/19
f 508/1089/29 648/1092/29 649/1093/29 507/1094/29
f 507/1094/14 649/1093/14 650/1095/14 506/1096/14
f 506/1097/22 651/1098/22 652/1099/22 524/1100/22
f 447/679/23 456/704/23 481/703/23 467/680/23
f 417/1101/24 416/1102/24 446/646/24 445/645/24
f 408/1103/27 446/1104/27 416/1105/27 409/1106/27
f 481/1107/27 480/1108/27 468/1109/27 467/1110/27
f 89/1111/27 95/1112/27 105/1113/27 90/1114/27
f 653/1115/27 654/1116/27 655/1117/27 656/1118/27
f 539/797/23 640/1072/23 639/1071/23 540/798/23
f 646/1119/24 645/1120/24 657/1121/24 81/1122/24
f 81/125/22 82/126/22 641/1123/22 640/1124/22
f 540/1125/27 639/1126/27 554/1127/27 541/1128/27
f 643/1085/23 83/1129/23 658/1130/23 644/1086/23
f 659/1131/29 642/1132/29 643/1133/29
f 646/1134/29 660/1135/29 659/1131/29 643/1133/29
f 542/1136/29 660/1135/29 646/1134/29 539/1137/29
f 515/765/22 516/766/22 84/1138/22 83/1139/22
f 661/1140/23 489/758/23 511/757/23 662/1141/23
f 661/1142/21 663/1143/21 664/1144/21 665/1145/21
f 665/1146/24 666/1147/24 487/712/24 486/711/24
f 548/818/21 633/1148/21 667/1149/21 549/819/21
f 88/1150/27 87/1151/27 92/1152/27 91/1153/27
f 632/1051/22 635/1054/22 624/1154/22 668/1155/22
f 668/1155/22 624/1154/22 623/1156/22
f 560/1157/23 668/1158/23 669/1159/23 670/1160/23
f 522/1161/24 521/1162/24 543/1060/24 556/1059/24
f 518/817/22 550/820/22 671/1163/22 556/1164/22
f 556/1164/22 671/1163/22 632/1165/22
f 634/1166/27 625/1167/27 624/1168/27 635/1169/27
f 619/1029/22 620/1030/22 614/1170/22 118/1171/22
f 118/1171/22 614/1170/22 613/1172/22
f 115/203/23 118/1173/23 140/1174/23 125/204/23
f 580/1175/24 672/1176/24 673/1177/24 674/1178/24
f 623/1179/22 675/1180/22 676/1181/22 674/1182/22
f 674/1182/22 676/1181/22 619/1183/22
f 157/1184/23 166/1185/23 191/1186/23 194/1187/23
f 155/1188/27 159/1189/27 614/1190/27 620/1191/27
f 677/1192/21 626/1193/21 137/1194/21
f 156/1195/21 678/1196/21 677/1192/21 137/1194/21
f 137/1197/24 132/1198/24 99/166/24 100/167/24
f 41/161/22 98/164/22 136/1199/22 100/1200/22
f 100/1200/22 136/1199/22 186/1201/22
f 590/1202/27 206/1203/27 188/1204/27 187/1205/27
f 102/1206/23 185/366/23 223/365/23 226/1207/23
f 68/148/23 69/142/23 88/141/23 91/149/23
f 646/1208/22 656/1209/22 655/1210/22 539/1211/22
f 85/1212/27 104/1213/27 96/1214/27 86/1215/27
f 611/1009/22 612/1010/22 610/1216/22 170/1217/22
f 170/1217/22 610/1216/22 609/1218/22
f 151/283/23 170/1219/23 204/1220/23 176/284/23
f 127/1221/24 126/1222/24 141/1223/24 147/1224/24
f 613/1225/22 146/1226/22 145/1227/22 147/1228/22
f 147/1228/22 145/1227/22 611/1229/22
f 220/1230/23 229/1231/23 255/1232/23 258/1233/23
f 218/1234/27 222/1235/27 610/1236/27 612/1237/27
f 143/1238/21 158/1239/21 200/1240/21
f 219/1241/21 144/1242/21 143/1238/21 200/1240/21
f 200/1243/24 193/1244/24 192/1245/24 201/1246/24
f 189/1247/22 199/1248/22 198/1249/22 201/1250/22
f 201/1250/22 198/1249/22 248/1251/22
f 250/1252/27 270/1253/27 252/1254/27 251/1255/27
f 607/996/22 608/997/22 606/1256/22 238/1257/22
f 238/1257/22 606/1256/22 605/1258/22
f 216/375/23 238/1259/23 268/1260/23 239/376/23
f 178/1261/24 177/1262/24 205/1263/24 212/1264/24
f 609/1265/22 211/1266/22 210/1267/22 212/1268/22
f 212/1268/22 210/1267/22 607/1269/22
f 283/1270/23 293/1271/23 308/1272/23 311/1273/23
f 281/1274/27 285/1275/27 606/1276/27 608/1277/27
f 208/1278/21 221/1279/21 264/1280/21
f 282/1281/21 209/1282/21 208/1278/21 264/1280/21
f 264/1283/24 257/1284/24 256/1285/24 265/1286/24
f 253/1287/22 263/1288/22 262/1289/22 265/1290/22
f 265/1290/22 262/1289/22 302/1291/22
f 304/1292/27 326/1293/27 306/1294/27 305/1295/27
f 603/984/22 604/985/22 602/1296/22 297/1297/22
f 297/1297/22 602/1296/22 601/1298/22
f 280/461/23 297/1299/23 321/1300/23 299/462/23
f 241/1301/24 240/1302/24 269/1303/24 276/1304/24
f 605/1305/22 275/1306/22 274/1307/22 276/1308/22
f 276/1308/22 274/1307/22 603/1309/22
f 343/1310/23 348/1311/23 364/1312/23 367/1313/23
f 341/1314/27 345/1315/27 602/1316/27 604/1317/27
f 272/1318/21 284/1319/21 317/1320/21
f 342/1321/21 273/1322/21 272/1318/21 317/1320/21
f 317/1323/24 310/1324/24 309/1325/24 318/1326/24
f 307/1327/22 316/1328/22 315/1329/22 318/1330/22
f 318/1330/22 315/1329/22 358/1331/22
f 360/1332/27 382/1333/27 362/1334/27 361/1335/27
f 599/972/22 600/973/22 353/1336/22
f 353/1336/22 600/973/22 596/1337/22 595/1338/22
f 336/533/23 353/1339/23 377/1340/23 355/534/23
f 301/1341/24 300/1342/24 322/1343/24 332/1344/24
f 601/1345/22 331/1346/22 332/1347/22
f 332/1347/22 331/1346/22 330/1348/22 599/1349/22
f 393/1350/23 398/1351/23 418/1352/23 421/1353/23
f 391/1354/27 395/1355/27 596/1356/27 600/1357/27
f 328/1358/21 344/1359/21 373/1360/21
f 392/1361/21 329/1362/21 328/1358/21 373/1360/21
f 373/1363/24 366/1364/24 365/1365/24 374/1366/24
f 363/1367/22 372/1368/22 371/1369/22 374/1370/22
f 374/1370/22 371/1369/22 410/1371/22
f 443/1372/27 442/1373/27 412/1374/27 411/1375/27
f 428/1376/23 431/666/23 452/665/23 455/1377/23
f 428/1378/21 370/1379/21 369/1380/21 383/1381/21
f 370/1379/21 428/1378/21 444/1382/21
f 597/1383/24 679/1384/24 403/596/24 402/595/24
f 235/1385/27 403/1386/27 679/1387/27 236/1388/27
f 414/948/22 475/951/22 472/1389/22 422/1390/22
f 581/1391/19 422/1392/19 478/1393/19 591/1394/19
f 478/1393/19 488/1395/19 494/1396/19 591/1394/19
f 581/1391/19 405/1397/19 422/1392/19
f 357/1398/24 356/1399/24 378/1400/24 388/1401/24
f 595/1402/22 387/1403/22 386/1404/22 388/1405/22
f 388/1405/22 386/1404/22 414/1406/22
f 482/931/23 485/728/23 490/727/23 493/932/23
f 482/1407/21 433/715/21 432/1408/21 441/1409/21
f 433/715/21 482/1407/21 488/716/21
f 441/1410/24 454/1411/24 453/664/24 457/663/24
f 680/1412/29 544/1413/29 546/1414/29
f 546/1414/29 681/1415/29 585/892/29 680/1412/29
f 130/889/29 585/892/29 681/1415/29 111/1416/29
f 544/1413/14 680/1412/14 582/883/14 545/882/14
f 546/1417/23 583/1418/23 682/1419/23 683/1420/23
f 532/1421/19 547/1422/19 684/1423/19 685/1424/19
f 532/1425/29 685/1426/29 647/1091/29 524/1090/29
f 524/1427/24 652/1428/24 530/784/24 529/783/24
f 505/1429/28 686/1430/28 523/1431/28
f 523/1431/28 686/1430/28 684/1432/28 529/1433/28
f 529/1433/28 684/1432/28 547/1434/28
f 506/1097/23 523/786/23 531/785/23 651/1098/23
f 506/1096/29 650/1095/29 690/1435/29 504/1436/29
f 504/1436/14 690/1435/14 686/1430/14 505/1429/14
f 531/1437/27 530/1438/27 652/1439/27 651/1440/27
f 354/564/23 368/592/23 401/591/23 379/565/23
f 325/1441/24 324/1442/24 350/522/24 349/521/24
f 401/1443/27 400/1444/27 380/1445/27 379/1446/27
f 298/490/23 312/524/23 351/523/23 323/491/23
f 325/1447/29 691/1448/29 294/1449/29 298/1450/29
f 354/1451/29 692/1452/29 691/1448/29 325/1447/29
f 354/1451/29 381/1453/29 692/1452/29
f 294/1449/14 691/1448/14 693/1454/14 295/1455/14
f 351/1456/27 350/1457/27 324/1458/27 323/1459/27
f 232/1460/24 231/1461/24 243/395/24 254/394/24
f 161/904/28 588/903/28 190/1462/28
f 190/1462/28 588/903/28 694/1463/28 217/1464/28
f 217/1464/28 694/1463/28 286/1465/28 254/1466/28
f 259/908/19 286/1467/19 694/1468/19 589/907/19
f 168/1469/24 167/1470/24 179/305/24 190/304/24
f 195/359/23 217/397/23 242/396/23 230/360/23
f 681/1471/24 695/1472/24 696/1473/24 120/1474/24
f 111/207/23 114/236/23 133/235/23 128/208/23
f 697/1475/27 568/1476/27 567/1477/27 698/1478/27
f 549/1479/27 667/1480/27 671/1481/27 550/1482/27
f 537/821/22 553/824/22 592/1483/22 80/1484/22
f 80/1484/22 592/1483/22 77/1485/22
f 552/1486/27 566/1487/27 592/1488/27 553/1489/27
f 546/1490/24 535/1491/24 534/1492/24 583/1493/24
f 81/1122/21 657/1121/21 658/1130/21 83/1129/21
f 658/1494/27 657/1495/27 645/1496/27 644/1497/27
f 560/1498/24 559/1499/24 636/1500/24 668/1501/24
f 67/1502/27 66/1503/27 84/1504/27 516/1505/27
f 545/806/21 583/1493/21 534/1492/21 533/807/21
f 548/1506/23 50/74/23 51/78/23 718/1507/23 637/1508/23
f 54/1509/27 53/1510/27 641/1511/27 82/1512/27
f 154/1513/24 153/1514/24 663/1143/24 661/1142/24
f 661/1140/22 662/1141/22 513/1515/22 512/1516/22
f 511/1517/27 510/1518/27 513/1519/27 662/1520/27
f 131/253/23 665/1145/23 664/1144/23 152/254/23
f 699/1521/29 123/1522/29 131/1523/29
f 154/1524/29 700/1525/29 699/1521/29 131/1523/29
f 154/1524/29 627/1526/29 700/1525/29
f 124/671/22 462/674/22 666/1527/22 665/1528/22
f 461/1529/27 487/1530/27 666/1531/27 462/1532/27
f 664/1533/27 663/1534/27 153/1535/27 152/1536/27
f 77/1537/23 565/848/23 561/847/23 564/1538/23
f 77/178/21 104/177/21 85/137/21 80/136/21
f 80/124/21 79/123/21 538/796/21 537/795/21
f 538/1539/27 79/1540/27 71/1541/27 70/1542/27
f 659/1543/14 701/1544/14 69/1545/14 68/1546/14
f 69/1545/14 701/1544/14 551/1547/14 537/1548/14
f 642/1549/14 659/1543/14 68/1546/14 515/1550/14
f 597/959/23 402/640/23 440/639/23 598/960/23
f 359/1551/21 314/1552/21 313/1553/21 327/1554/21
f 303/1555/21 261/1556/21 260/1557/21 271/1558/21
f 249/1559/21 197/1560/21 196/1561/21 207/1562/21
f 234/1563/24 225/1564/24 224/364/24 233/363/24
f 660/1565/19 555/1566/19 569/1567/19 702/1568/19
f 702/1568/19 569/1567/19 571/1569/19
f 660/1565/19 542/1570/19 555/1566/19
f 539/1571/24 655/1572/24 654/1573/24 640/1574/24
f 640/1575/22 698/1576/22 567/1577/22 555/1578/22
f 569/844/21 568/843/21 697/1579/21 61/1580/21
f 61/1581/24 60/1582/24 594/940/24 593/939/24
f 78/1583/27 594/1584/27 60/1585/27 59/1586/27
f 593/1587/24 563/1588/24 562/846/24 570/845/24
f 551/1589/28 701/1590/28 702/1591/28 565/1592/28
f 565/1592/28 702/1591/28 571/1593/28 570/1594/28
f 560/1157/22 670/1160/22 672/1595/22 580/1596/22
f 665/1597/23 486/720/23 171/719/23 174/1598/23
f 665/1599/21 108/1600/21 107/201/21 124/200/21
f 123/1522/14 699/1521/14 703/1601/14 124/1602/14
f 703/1601/14 460/1603/14 124/1602/14
f 627/1526/19 512/1604/19 704/1605/19 700/1525/19
f 704/1605/19 512/1604/19 509/1606/19
f 512/1046/21 616/1045/21 615/1607/21 661/1608/21
f 661/1609/24 173/1610/24 172/718/24 489/717/24
f 460/1603/28 703/1601/28 486/1611/28
f 486/1611/28 703/1601/28 704/1612/28 489/1613/28
f 489/1613/28 704/1612/28 509/1614/28
f 546/1417/22 683/1420/22 695/1615/22 681/1616/22
f 83/1617/21 630/1618/21 629/1081/21 515/1080/21
f 298/1619/24 289/1620/24 288/477/24 312/476/24
f 325/529/23 349/551/23 337/550/23 340/530/23
f 354/1621/24 339/1622/24 338/549/24 368/548/24
f 295/1455/28 693/1454/28 349/1623/28 312/1624/28
f 349/1623/28 693/1454/28 705/1625/28 368/1626/28
f 368/1626/28 705/1625/28 399/1627/28
f 381/1453/19 399/1628/19 705/1629/19 692/1452/19
f 689/1630/27 706/1631/27 687/1632/27 688/1633/27
f 524/787/23 529/814/23 525/813/23 528/788/23
f 524/778/21 500/777/21 499/751/21 506/750/21
f 506/1634/24 497/1635/24 496/774/24 523/773/24
f 447/1636/24 426/1637/24 425/660/24 456/659/24
f 407/1638/28 707/1639/28 445/1640/28
f 445/1640/28 707/1639/28 708/1641/28 456/1642/28
f 456/1642/28 708/1641/28 479/1643/28
f 469/1644/19 479/1645/19 708/1646/19 709/1647/19
f 710/1648/29 406/1649/29 417/1650/29
f 447/1651/29 709/1647/29 710/1648/29 417/1650/29
f 447/1651/29 469/1644/29 709/1647/29
f 406/1649/14 710/1648/14 707/1639/14 407/1638/14
f 417/647/23 445/662/23 424/661/23 427/648/23
f 694/1652/27 581/1653/27 705/1654/27 693/1655/27
f 694/1652/27 693/1655/27 691/1656/27 589/1657/27
f 579/1658/27 581/1653/27 694/1652/27 588/1659/27
f 581/1653/27 699/1660/27 707/1661/27 705/1654/27
f 16/19/27 587/1662/27 589/1657/27 691/1656/27
f 591/1663/27 703/1664/27 699/1660/27 581/1653/27
f 579/1658/27 588/1659/27 584/1665/27 582/1666/27
f 16/19/27 691/1656/27 692/1667/27 23/28/27
f 699/1660/27 700/1668/27 708/1669/27 707/1661/27
f 705/1654/27 707/1661/27 710/1670/27 692/1667/27
f 584/1665/27 588/1659/27 587/1662/27 585/1671/27
f 16/19/27 680/1672/27 585/1671/27 587/1662/27
f 703/1664/27 591/1663/27 690/1673/27
f 576/1674/27 579/1658/27 582/1666/27 577/1675/27
f 692/1667/27 710/1670/27 709/1676/27 23/28/27
f 700/1668/27 659/1677/27 687/1632/27 708/1669/27
f 591/1663/27 686/1678/27 690/1673/27
f 577/1675/27 582/1666/27 680/1672/27 578/1679/27
f 575/1680/27 578/1679/27 680/1672/27 16/19/27
f 704/1681/27 701/1682/27 659/1677/27 700/1668/27
f 649/1683/27 648/1684/27 704/1681/27
f 690/1673/27 650/1685/27 649/1683/27
f 591/1663/27 29/35/27 684/1686/27 686/1678/27
f 579/1658/27 576/1674/27 575/1680/27 15/18/27
f 709/1676/27 706/1631/27 689/1630/27 23/28/27
f 708/1669/27 687/1632/27 706/1631/27 709/1676/27
f 659/1677/27 660/1687/27 688/1633/27 687/1632/27
f 20/24/27 29/35/27 591/1663/27 586/1688/27
f 15/18/27 21/25/27 586/1688/27 579/1658/27
f 575/1680/27 16/19/27 15/18/27
f 685/1689/27 701/1682/27 704/1681/27
f 684/1686/27 29/35/27 702/1690/27 701/1682/27
f 689/1630/27 24/29/27 23/28/27
f 660/1687/27 24/29/27 689/1630/27 688/1633/27
f 684/1686/27 701/1682/27 685/1689/27
f 647/1691/27 685/1689/27 648/1684/27
f 20/24/27 586/1688/27 21/25/27
f 660/1687/27 702/1690/27 28/34/27 24/29/27
f 29/35/27 28/34/27 702/1690/27
f 410/1692/21 397/587/21 375/558/21 374/557/21
f 397/587/21 410/1692/21 398/588/21
f 410/1693/24 371/1694/24 370/1379/24 444/1382/24
f 428/1376/22 455/1377/22 444/1695/22
f 444/1695/22 455/1377/22 454/1696/22 441/1697/22
f 413/691/23 441/1409/23 432/1408/23 435/692/23
f 413/1698/21 419/1699/21 418/1352/21 398/1351/21
f 419/1699/21 413/1698/21 437/1700/21
f 358/1701/21 347/519/21 319/484/21 318/483/21
f 347/519/21 358/1701/21 348/520/21
f 358/1702/24 315/1703/24 314/1552/24 359/1551/24
f 234/1704/22 236/1705/22 207/1706/22
f 207/1706/22 236/1705/22 271/1707/22 249/1708/22
f 271/1707/22 236/1705/22 679/1709/22 303/1710/22
f 303/1710/22 679/1709/22 359/1711/22 327/1712/22
f 359/1711/22 679/1709/22 597/1713/22
f 363/1367/23 383/1381/23 369/1380/23 372/1368/23
f 363/1714/21 365/1365/21 364/1312/21 348/1311/21
f 365/1365/21 363/1714/21 374/1366/21
f 302/1715/21 292/449/21 266/414/21 265/413/21
f 292/449/21 302/1715/21 293/450/21
f 302/1716/24 262/1717/24 261/1556/24 303/1555/24
f 307/1327/23 327/1554/23 313/1553/23 316/1328/23
f 307/1718/21 309/1325/21 308/1272/21 293/1271/21
f 309/1325/21 307/1718/21 318/1326/21
f 248/1719/21 228/357/21 202/322/21 201/321/21
f 228/357/21 248/1719/21 229/358/21
f 248/1720/24 198/1721/24 197/1560/24 249/1559/24
f 253/1287/23 271/1558/23 260/1557/23 263/1288/23
f 253/1722/21 256/1285/21 255/1232/21 229/1231/21
f 256/1285/21 253/1722/21 265/1286/21
f 186/1723/21 165/268/21 138/227/21 100/226/21
f 165/268/21 186/1723/21 166/269/21
f 186/1724/24 136/1725/24 135/282/24 175/281/24
f 102/1206/22 226/1207/22 225/1726/22 175/1727/22
f 175/1727/22 225/1726/22 234/1728/22
f 189/1247/23 207/1562/23 196/1561/23 199/1248/23
f 189/1729/21 192/1245/21 191/1186/21 166/1185/21
f 192/1245/21 189/1729/21 201/1246/21
f 154/1039/23 661/1608/23 615/1607/23 618/1040/23
f 131/1730/24 109/1731/24 108/1600/24 665/1599/24
f 665/1597/22 174/1598/22 173/1732/22 661/1733/22
f 646/1208/23 81/1734/23 653/1735/23 656/1209/23
f 643/1736/24 631/1737/24 630/1618/24 83/1617/24
f 83/143/22 90/146/22 105/1738/22 81/1739/22
f 36/1740/27 35/1741/27 75/1742/27 74/1743/27
f 682/1744/27 696/1745/27 695/1746/27 683/1747/27
f 119/1748/27 113/1749/27 112/1750/27 711/1751/27
f 670/1752/27 669/1753/27 673/1754/27 672/1755/27
f 120/1474/21 696/1473/21 682/1419/21 583/1418/21
f 681/1756/23 120/196/23 119/195/23 711/1757/23
f 50/107/23 37/54/23 36/53/23 74/108/23
f 677/1758/27 678/1759/27 676/1760/27 675/1761/27
f 580/1762/23 674/1763/23 621/1764/23 622/1765/23
f 638/1064/23 593/1766/23 570/852/23 573/851/23
f 638/1064/23 61/1063/23 593/1766/23
f 580/1762/22 622/1765/22 116/1767/22 115/1768/22
f 681/1756/22 711/1757/22 112/1769/22 111/1770/22
f 77/1537/22 564/1538/22 563/1771/22 593/1772/22
f 698/1576/23 52/1773/23 61/1580/23 697/1579/23
f 698/1576/23 640/1575/23 52/1773/23
f 640/1574/21 654/1573/21 653/1735/21 81/1734/21
f 634/1053/21 633/1052/21 30/1774/21
f 626/1038/21 625/1037/21 634/1053/21 30/1774/21
f 595/1402/23 394/1775/23 384/1776/23 387/1403/23
f 595/1777/21 378/1400/21 377/1340/21 353/1339/21
f 378/1400/21 595/1777/21 388/1401/21
f 599/1778/21 352/527/21 333/504/21 332/503/21
f 352/527/21 599/1778/21 353/528/21
f 599/1779/24 330/1780/24 329/1362/24 392/1361/24
f 373/556/22 376/559/22 396/1781/22 392/1782/22
f 392/1782/22 396/1781/22 393/1783/22
f 393/1350/22 421/1353/22 420/1784/22 394/1785/22
f 394/1785/22 420/1784/22 436/1786/22
f 601/1345/23 344/1359/23 328/1358/23 331/1346/23
f 601/1787/21 322/1343/21 321/1300/21 297/1299/21
f 322/1343/21 601/1787/21 332/1344/21
f 603/1788/21 296/457/21 277/430/21 276/429/21
f 296/457/21 603/1788/21 297/458/21
f 603/1789/24 274/1790/24 273/1322/24 342/1321/24
f 317/482/22 320/485/22 346/1791/22 342/1792/22
f 342/1792/22 346/1791/22 343/1793/22
f 343/1310/22 367/1313/22 366/1794/22 344/1795/22
f 344/1795/22 366/1794/22 373/1796/22
f 605/1305/23 284/1319/23 272/1318/23 275/1306/23
f 605/1797/21 269/1303/21 268/1260/21 238/1259/21
f 269/1303/21 605/1797/21 276/1304/21
f 607/1798/21 237/373/21 213/338/21 212/337/21
f 237/373/21 607/1798/21 238/374/21
f 607/1799/24 210/1800/24 209/1282/24 282/1281/24
f 264/412/22 267/415/22 291/1801/22 282/1802/22
f 282/1802/22 291/1801/22 283/1803/22
f 283/1270/22 311/1273/22 310/1804/22 284/1805/22
f 284/1805/22 310/1804/22 317/1806/22
f 609/1265/23 221/1279/23 208/1278/23 211/1266/23
f 609/1807/21 205/1263/21 204/1220/21 170/1219/21
f 205/1263/21 609/1807/21 212/1264/21
f 611/1808/21 169/274/21 148/249/21 147/248/21
f 169/274/21 611/1808/21 170/275/21
f 611/1809/24 145/1810/24 144/1242/24 219/1241/24
f 200/320/22 203/323/22 227/1811/22 219/1812/22
f 219/1812/22 227/1811/22 220/1813/22
f 220/1230/22 258/1233/22 257/1814/22 221/1815/22
f 221/1815/22 257/1814/22 264/1816/22
f 613/1225/23 158/1239/23 143/1238/23 146/1226/23
f 140/1174/21 118/1173/21 613/1817/21
f 147/1224/21 141/1223/21 140/1174/21 613/1817/21
f 619/1818/21 117/193/21 621/1764/21 674/1763/21
f 117/193/21 619/1818/21 118/194/21
f 619/1819/24 676/1820/24 678/1196/24 156/1195/24
f 137/225/22 139/228/22 164/1821/22 156/1822/22
f 156/1822/22 164/1821/22 157/1823/22
f 157/1184/22 194/1187/22 193/1824/22 158/1825/22
f 158/1825/22 193/1824/22 200/1826/22
f 623/1179/23 626/1193/23 677/1192/23 675/1180/23
f 623/1827/21 673/1177/21 669/1159/21 668/1158/21
f 673/1177/21 623/1827/21 674/1178/21
f 632/1828/21 636/1500/21 557/831/21 556/830/21
f 636/1500/21 632/1828/21 668/1501/21
f 632/1829/24 671/1830/24 667/1149/24 633/1148/24
f 2/1831/2 3/5/2 713/8/2 712/1832/2
f 548/1506/30 637/1508/30 716/1833/30 720/1834/30 31/1835/30 633/1836/30
f 633/1836/31 31/1835/31 30/1837/31
f 30/103/22 73/106/22 132/1838/22 626/1839/22
f 626/1839/22 132/1838/22 137/1840/22
f 473/1841/23 448/1842/23 451/936/23 470/935/23
f 448/1842/21 473/1841/21 474/950/21 415/949/21
f 384/1776/21 394/1775/21 436/1843/21
f 415/611/21 385/610/21 384/1776/21 436/1843/21
f 436/1844/24 420/1845/24 419/1699/24 437/1700/24
f 713/8/32 1/7/32 7/1846/32 27/1847/32
f 3/5/33 13/1848/33 6/1849/33 4/6/33
f 8/1850/34 12/1851/34 2/1831/34 5/1/34
f 9/3/35 714/2/35 712/1832/35 17/1852/35
f 12/1851/36 13/1848/36 3/5/36 2/1831/36
f 17/1852/37 712/1832/37 713/8/37 27/1847/37
f 649/1683/27 703/1664/27 690/1673/27
f 703/1664/27 649/1683/27 704/1681/27
f 648/1684/27 685/1689/27 704/1681/27
f 712/1832/2 714/2/2 5/1/2 2/1831/2
f 717/1853/27 31/1854/27 720/1855/27 721/1856/27 32/1857/27
f 719/1858/27 716/1859/27 637/1860/27 718/1861/27 51/1862/27 715/1863/27
f 721/1856/38 720/1855/38 716/1859/38 719/1858/38 715/1863/38
